\relax 
\providecommand\hyper@newdestlabel[2]{}
\citation{maier2017isles}
\citation{maier2017isles}
\citation{maier2017isles}
\citation{maier2017isles}
\citation{maier2017isles}
\citation{fonov2011unbiased}
\@writefile{toc}{\contentsline {section}{\numberline {6.1}Dataset}{56}{section.6.1}}
\@writefile{lof}{\contentsline {figure}{\numberline {6.1}{\ignorespaces Axial slices from 5 subjects, with corresponding lesion masks, from the 2015 Ischemic Stroke Lesion Segmentation (ISLES) dataset [\citenum  {maier2017isles}]. The two columns to the right display brain-lesion overlays with two different translucencies. }}{57}{figure.6.1}}
\newlabel{fig:square-I-T}{{6.1}{57}{Dataset}{figure.6.1}{}}
\citation{liew2022enigma}
\citation{liew2018large}
\citation{liew2022enigma}
\citation{liew2022enigma}
\@writefile{lot}{\contentsline {table}{\numberline {6.1}{\ignorespaces  For SISS, cases with sub-acute ischemic stroke lesions have been collected from clinical routine acquisition. The following table of characteristics reflect the diversity of the SISS dataset. Table taken from [\citenum  {maier2017isles}, Tbl. 3].}}{58}{table.6.1}}
\newlabel{tab:table-reg-result}{{6.1}{58}{For SISS, cases with sub-acute ischemic stroke lesions have been collected from clinical routine acquisition. The following table of characteristics reflect the diversity of the SISS dataset. Table taken from [\citenum {maier2017isles}, Tbl. 3]}{table.6.1}{}}
\newlabel{fig:square-warped-a}{{\caption@xref {fig:square-warped-a}{ on input line 53}}{58}{Dataset}{table.6.1}{}}
\@writefile{}{\contentsline {subfigure}{\numberline {(\GenericError  {               }{LaTeX Error: Counter too large}{See the LaTeX manual or LaTeX Companion for explanation.}{You've lost some text.  Try typing  <return>  to proceed.\MessageBreak If that doesn't work, type  X <return>  to quit.})}{\ignorespaces  (a) Subject \relax }}{58}{figure.6.2}}
\newlabel{fig:square-warped-a}{{\caption@xref {fig:square-warped-a}{ on input line 54}}{58}{Dataset}{figure.6.2}{}}
\@writefile{}{\contentsline {subfigure}{\numberline {(\GenericError  {               }{LaTeX Error: Counter too large}{See the LaTeX manual or LaTeX Companion for explanation.}{You've lost some text.  Try typing  <return>  to proceed.\MessageBreak If that doesn't work, type  X <return>  to quit.})}{\ignorespaces  (b) Template \relax }}{58}{figure.6.2}}
\@writefile{lof}{\contentsline {figure}{\numberline {6.3}{\ignorespaces  Subfigure (a) is a subject image from a sub-acute ischemic stroke lesion (SISS) dataset and subfigure (b) is a symmetric template acquired from UCLA's International Consortium for Brain Mapping (ICBM) centre. }}{58}{figure.6.3}}
\newlabel{fig:square-I-T}{{\caption@xref {fig:square-I-T}{ on input line 57}}{58}{Dataset}{figure.6.3}{}}
\citation{reinhold2019evaluating}
\citation{reinhold2019evaluating}
\citation{reinhold2019evaluating}
\newlabel{fig:square-warped-a}{{\caption@xref {fig:square-warped-a}{ on input line 64}}{59}{Dataset}{figure.6.3}{}}
\@writefile{}{\contentsline {subfigure}{\numberline {(\GenericError  {               }{LaTeX Error: Counter too large}{See the LaTeX manual or LaTeX Companion for explanation.}{You've lost some text.  Try typing  <return>  to proceed.\MessageBreak If that doesn't work, type  X <return>  to quit.})}{\ignorespaces  (a) Axial view \relax }}{59}{figure.6.4}}
\newlabel{fig:square-warped-a}{{\caption@xref {fig:square-warped-a}{ on input line 65}}{59}{Dataset}{figure.6.4}{}}
\@writefile{}{\contentsline {subfigure}{\numberline {(\GenericError  {               }{LaTeX Error: Counter too large}{See the LaTeX manual or LaTeX Companion for explanation.}{You've lost some text.  Try typing  <return>  to proceed.\MessageBreak If that doesn't work, type  X <return>  to quit.})}{\ignorespaces  (b) Coronal view \relax }}{59}{figure.6.4}}
\newlabel{fig:square-warped-a}{{\caption@xref {fig:square-warped-a}{ on input line 66}}{59}{Dataset}{figure.6.4}{}}
\@writefile{}{\contentsline {subfigure}{\numberline {(\GenericError  {               }{LaTeX Error: Counter too large}{See the LaTeX manual or LaTeX Companion for explanation.}{You've lost some text.  Try typing  <return>  to proceed.\MessageBreak If that doesn't work, type  X <return>  to quit.})}{\ignorespaces  (b) Sagittal view \relax }}{59}{figure.6.4}}
\@writefile{lof}{\contentsline {figure}{\numberline {6.5}{\ignorespaces  A stroke lesion probabilistic spatial mapping that was constructed by averaging over all samples from a dataset of 304 MRI images from 11 cohorts worldwide which were collected from research groups in the ENIGMA Stroke Recovery Working Group consortium [\citenum  {liew2022enigma}]. Brighter regions are more probable regions. }}{59}{figure.6.5}}
\newlabel{fig:square-I-T}{{\caption@xref {fig:square-I-T}{ on input line 69}}{59}{Dataset}{figure.6.5}{}}
\@writefile{toc}{\contentsline {section}{\numberline {6.2}Preprocessing}{59}{section.6.2}}
\@writefile{lof}{\contentsline {figure}{\numberline {6.6}{\ignorespaces  Subject intensity value normalization through a piecewise affine histogram matching algorithm [\citenum  {reinhold2019evaluating}].}}{60}{figure.6.6}}
\newlabel{fig:square-I-T}{{6.2}{60}{Preprocessing}{figure.6.6}{}}
\@writefile{lof}{\contentsline {figure}{\numberline {6.7}{\ignorespaces  The frequency histogram of the lesion intensity values once the dataset was normalized.}}{60}{figure.6.7}}
\newlabel{fig:square-I-T}{{6.2}{60}{Preprocessing}{figure.6.7}{}}
\newlabel{fig:square-warped-a}{{\caption@xref {fig:square-warped-a}{ on input line 104}}{61}{Preprocessing}{figure.6.7}{}}
\@writefile{}{\contentsline {subfigure}{\numberline {(\GenericError  {               }{LaTeX Error: Counter too large}{See the LaTeX manual or LaTeX Companion for explanation.}{You've lost some text.  Try typing  <return>  to proceed.\MessageBreak If that doesn't work, type  X <return>  to quit.})}{\ignorespaces  (a) Lesion boundary \relax }}{61}{figure.6.8}}
\newlabel{fig:square-warped-a}{{\caption@xref {fig:square-warped-a}{ on input line 105}}{61}{Preprocessing}{figure.6.8}{}}
\@writefile{}{\contentsline {subfigure}{\numberline {(\GenericError  {               }{LaTeX Error: Counter too large}{See the LaTeX manual or LaTeX Companion for explanation.}{You've lost some text.  Try typing  <return>  to proceed.\MessageBreak If that doesn't work, type  X <return>  to quit.})}{\ignorespaces  (b) Lesion boundary \relax }}{61}{figure.6.8}}
\@writefile{lof}{\contentsline {figure}{\numberline {6.9}{\ignorespaces  The lesion has a hyper-intense inner region that is outlined in green and a hypo-intense outer region that is between the red and green outline. Sub-figure (a) displays the entire lesion boundary.}}{61}{figure.6.9}}
\newlabel{fig:square-I-T}{{\caption@xref {fig:square-I-T}{ on input line 108}}{61}{Preprocessing}{figure.6.9}{}}
\@writefile{toc}{\contentsline {section}{\numberline {6.3}Results}{61}{section.6.3}}
\newlabel{fig:square-warped-a}{{\caption@xref {fig:square-warped-a}{ on input line 134}}{62}{Results}{section.6.3}{}}
\@writefile{}{\contentsline {subfigure}{\numberline {(\GenericError  {               }{LaTeX Error: Counter too large}{See the LaTeX manual or LaTeX Companion for explanation.}{You've lost some text.  Try typing  <return>  to proceed.\MessageBreak If that doesn't work, type  X <return>  to quit.})}{\ignorespaces  (a) $I \circ \phi $ (not masked) \relax }}{62}{figure.6.10}}
\newlabel{fig:square-warped-a}{{\caption@xref {fig:square-warped-a}{ on input line 135}}{62}{Results}{figure.6.10}{}}
\@writefile{}{\contentsline {subfigure}{\numberline {(\GenericError  {               }{LaTeX Error: Counter too large}{See the LaTeX manual or LaTeX Companion for explanation.}{You've lost some text.  Try typing  <return>  to proceed.\MessageBreak If that doesn't work, type  X <return>  to quit.})}{\ignorespaces  (b) $I \circ \phi $ (masked) \relax }}{62}{figure.6.10}}
\newlabel{fig:square-warped-a}{{\caption@xref {fig:square-warped-a}{ on input line 136}}{62}{Results}{figure.6.10}{}}
\@writefile{}{\contentsline {subfigure}{\numberline {(\GenericError  {               }{LaTeX Error: Counter too large}{See the LaTeX manual or LaTeX Companion for explanation.}{You've lost some text.  Try typing  <return>  to proceed.\MessageBreak If that doesn't work, type  X <return>  to quit.})}{\ignorespaces  (c) $T \circ \phi ^{-1} $ (not masked) \relax }}{62}{figure.6.10}}
\newlabel{fig:square-warped-a}{{\caption@xref {fig:square-warped-a}{ on input line 137}}{62}{Results}{figure.6.10}{}}
\@writefile{}{\contentsline {subfigure}{\numberline {(\GenericError  {               }{LaTeX Error: Counter too large}{See the LaTeX manual or LaTeX Companion for explanation.}{You've lost some text.  Try typing  <return>  to proceed.\MessageBreak If that doesn't work, type  X <return>  to quit.})}{\ignorespaces  (d) $T \circ \phi ^{-1} $ (masked) \relax }}{62}{figure.6.10}}
\newlabel{fig:square-warped-a}{{\caption@xref {fig:square-warped-a}{ on input line 141}}{62}{Results}{figure.6.10}{}}
\@writefile{}{\contentsline {subfigure}{\numberline {(\GenericError  {               }{LaTeX Error: Counter too large}{See the LaTeX manual or LaTeX Companion for explanation.}{You've lost some text.  Try typing  <return>  to proceed.\MessageBreak If that doesn't work, type  X <return>  to quit.})}{\ignorespaces  (e) $ \phi $ (not masked) \relax }}{62}{figure.6.10}}
\newlabel{fig:square-warped-a}{{\caption@xref {fig:square-warped-a}{ on input line 142}}{62}{Results}{figure.6.10}{}}
\@writefile{}{\contentsline {subfigure}{\numberline {(\GenericError  {               }{LaTeX Error: Counter too large}{See the LaTeX manual or LaTeX Companion for explanation.}{You've lost some text.  Try typing  <return>  to proceed.\MessageBreak If that doesn't work, type  X <return>  to quit.})}{\ignorespaces  (f) $ \phi $ (masked) \relax }}{62}{figure.6.10}}
\newlabel{fig:square-warped-a}{{\caption@xref {fig:square-warped-a}{ on input line 143}}{62}{Results}{figure.6.10}{}}
\@writefile{}{\contentsline {subfigure}{\numberline {(\GenericError  {               }{LaTeX Error: Counter too large}{See the LaTeX manual or LaTeX Companion for explanation.}{You've lost some text.  Try typing  <return>  to proceed.\MessageBreak If that doesn't work, type  X <return>  to quit.})}{\ignorespaces  (g) $ \phi ^{-1} $ (not masked) \relax }}{62}{figure.6.10}}
\newlabel{fig:square-warped-a}{{\caption@xref {fig:square-warped-a}{ on input line 144}}{62}{Results}{figure.6.10}{}}
\@writefile{}{\contentsline {subfigure}{\numberline {(\GenericError  {               }{LaTeX Error: Counter too large}{See the LaTeX manual or LaTeX Companion for explanation.}{You've lost some text.  Try typing  <return>  to proceed.\MessageBreak If that doesn't work, type  X <return>  to quit.})}{\ignorespaces  (h) $ \phi ^{-1}$ (masked) \relax }}{62}{figure.6.10}}
\@writefile{lof}{\contentsline {figure}{\numberline {6.11}{\ignorespaces The only difference between the warped images in (a) and (b) and the warped images in (c) and (d) is the presents of a mask. Every other parameter was held fixed. }}{62}{figure.6.11}}
\newlabel{fig:square-I-T}{{\caption@xref {fig:square-I-T}{ on input line 147}}{62}{Results}{figure.6.11}{}}
\newlabel{fig:square-warped-a}{{\caption@xref {fig:square-warped-a}{ on input line 152}}{63}{Results}{figure.6.11}{}}
\@writefile{}{\contentsline {subfigure}{\numberline {(\GenericError  {               }{LaTeX Error: Counter too large}{See the LaTeX manual or LaTeX Companion for explanation.}{You've lost some text.  Try typing  <return>  to proceed.\MessageBreak If that doesn't work, type  X <return>  to quit.})}{\ignorespaces  (a) RegSeg-M ($t=1$)\relax }}{63}{figure.6.12}}
\newlabel{fig:square-warped-a}{{\caption@xref {fig:square-warped-a}{ on input line 153}}{63}{Results}{figure.6.12}{}}
\@writefile{}{\contentsline {subfigure}{\numberline {(\GenericError  {               }{LaTeX Error: Counter too large}{See the LaTeX manual or LaTeX Companion for explanation.}{You've lost some text.  Try typing  <return>  to proceed.\MessageBreak If that doesn't work, type  X <return>  to quit.})}{\ignorespaces  (b) RegSeg-M ($t=10$)\relax }}{63}{figure.6.12}}
\newlabel{fig:square-warped-a}{{\caption@xref {fig:square-warped-a}{ on input line 154}}{63}{Results}{figure.6.12}{}}
\@writefile{}{\contentsline {subfigure}{\numberline {(\GenericError  {               }{LaTeX Error: Counter too large}{See the LaTeX manual or LaTeX Companion for explanation.}{You've lost some text.  Try typing  <return>  to proceed.\MessageBreak If that doesn't work, type  X <return>  to quit.})}{\ignorespaces  (c) RegSeg-M ($t=20$)\relax }}{63}{figure.6.12}}
\newlabel{fig:square-warped-a}{{\caption@xref {fig:square-warped-a}{ on input line 155}}{63}{Results}{figure.6.12}{}}
\@writefile{}{\contentsline {subfigure}{\numberline {(\GenericError  {               }{LaTeX Error: Counter too large}{See the LaTeX manual or LaTeX Companion for explanation.}{You've lost some text.  Try typing  <return>  to proceed.\MessageBreak If that doesn't work, type  X <return>  to quit.})}{\ignorespaces  (d) True mask \relax }}{63}{figure.6.12}}
\newlabel{fig:square-warped-a}{{\caption@xref {fig:square-warped-a}{ on input line 157}}{63}{Results}{figure.6.12}{}}
\@writefile{}{\contentsline {subfigure}{\numberline {(\GenericError  {               }{LaTeX Error: Counter too large}{See the LaTeX manual or LaTeX Companion for explanation.}{You've lost some text.  Try typing  <return>  to proceed.\MessageBreak If that doesn't work, type  X <return>  to quit.})}{\ignorespaces  (e) RegSeg ($t=1$)\relax }}{63}{figure.6.12}}
\newlabel{fig:square-warped-a}{{\caption@xref {fig:square-warped-a}{ on input line 158}}{63}{Results}{figure.6.12}{}}
\@writefile{}{\contentsline {subfigure}{\numberline {(\GenericError  {               }{LaTeX Error: Counter too large}{See the LaTeX manual or LaTeX Companion for explanation.}{You've lost some text.  Try typing  <return>  to proceed.\MessageBreak If that doesn't work, type  X <return>  to quit.})}{\ignorespaces  (f) RegSeg ($t=10$)\relax }}{63}{figure.6.12}}
\newlabel{fig:square-warped-a}{{\caption@xref {fig:square-warped-a}{ on input line 159}}{63}{Results}{figure.6.12}{}}
\@writefile{}{\contentsline {subfigure}{\numberline {(\GenericError  {               }{LaTeX Error: Counter too large}{See the LaTeX manual or LaTeX Companion for explanation.}{You've lost some text.  Try typing  <return>  to proceed.\MessageBreak If that doesn't work, type  X <return>  to quit.})}{\ignorespaces  (g) RegSeg ($t=20$)\relax }}{63}{figure.6.12}}
\newlabel{fig:square-warped-a}{{\caption@xref {fig:square-warped-a}{ on input line 160}}{63}{Results}{figure.6.12}{}}
\@writefile{}{\contentsline {subfigure}{\numberline {(\GenericError  {               }{LaTeX Error: Counter too large}{See the LaTeX manual or LaTeX Companion for explanation.}{You've lost some text.  Try typing  <return>  to proceed.\MessageBreak If that doesn't work, type  X <return>  to quit.})}{\ignorespaces  (h) Lesion prior \relax }}{63}{figure.6.12}}
\@writefile{lof}{\contentsline {figure}{\numberline {6.13}{\ignorespaces  Subfigures (a), (b) and (c) display mask estimates using the RegSeg-Morph algorithm and at different iterations. Subfigures (e), (f) and (g) display mask estimates using the RegSeg algorithm and at different iterations. The images use subject ID = 1. }}{63}{figure.6.13}}
\newlabel{fig:square-I-T}{{\caption@xref {fig:square-I-T}{ on input line 163}}{63}{Results}{figure.6.13}{}}
\newlabel{fig:square-warped-a}{{\caption@xref {fig:square-warped-a}{ on input line 170}}{64}{Results}{figure.6.13}{}}
\@writefile{}{\contentsline {subfigure}{\numberline {(\GenericError  {               }{LaTeX Error: Counter too large}{See the LaTeX manual or LaTeX Companion for explanation.}{You've lost some text.  Try typing  <return>  to proceed.\MessageBreak If that doesn't work, type  X <return>  to quit.})}{\ignorespaces  (a) Mask estimate ($t=1$)\relax }}{64}{figure.6.14}}
\newlabel{fig:square-warped-a}{{\caption@xref {fig:square-warped-a}{ on input line 171}}{64}{Results}{figure.6.14}{}}
\@writefile{}{\contentsline {subfigure}{\numberline {(\GenericError  {               }{LaTeX Error: Counter too large}{See the LaTeX manual or LaTeX Companion for explanation.}{You've lost some text.  Try typing  <return>  to proceed.\MessageBreak If that doesn't work, type  X <return>  to quit.})}{\ignorespaces  (b) Mask estimate ($t=10$)\relax }}{64}{figure.6.14}}
\newlabel{fig:square-warped-a}{{\caption@xref {fig:square-warped-a}{ on input line 172}}{64}{Results}{figure.6.14}{}}
\@writefile{}{\contentsline {subfigure}{\numberline {(\GenericError  {               }{LaTeX Error: Counter too large}{See the LaTeX manual or LaTeX Companion for explanation.}{You've lost some text.  Try typing  <return>  to proceed.\MessageBreak If that doesn't work, type  X <return>  to quit.})}{\ignorespaces  (c) Mask estimate ($t=20$)\relax }}{64}{figure.6.14}}
\newlabel{fig:square-warped-a}{{\caption@xref {fig:square-warped-a}{ on input line 174}}{64}{Results}{figure.6.14}{}}
\@writefile{}{\contentsline {subfigure}{\numberline {(\GenericError  {               }{LaTeX Error: Counter too large}{See the LaTeX manual or LaTeX Companion for explanation.}{You've lost some text.  Try typing  <return>  to proceed.\MessageBreak If that doesn't work, type  X <return>  to quit.})}{\ignorespaces  (d) Lesion/brain overlay\relax }}{64}{figure.6.14}}
\newlabel{fig:square-warped-a}{{\caption@xref {fig:square-warped-a}{ on input line 175}}{64}{Results}{figure.6.14}{}}
\@writefile{}{\contentsline {subfigure}{\numberline {(\GenericError  {               }{LaTeX Error: Counter too large}{See the LaTeX manual or LaTeX Companion for explanation.}{You've lost some text.  Try typing  <return>  to proceed.\MessageBreak If that doesn't work, type  X <return>  to quit.})}{\ignorespaces  (e) Lesion/brain overlay\relax }}{64}{figure.6.14}}
\newlabel{fig:square-warped-a}{{\caption@xref {fig:square-warped-a}{ on input line 176}}{64}{Results}{figure.6.14}{}}
\@writefile{}{\contentsline {subfigure}{\numberline {(\GenericError  {               }{LaTeX Error: Counter too large}{See the LaTeX manual or LaTeX Companion for explanation.}{You've lost some text.  Try typing  <return>  to proceed.\MessageBreak If that doesn't work, type  X <return>  to quit.})}{\ignorespaces  (f) True mask\relax }}{64}{figure.6.14}}
\@writefile{lof}{\contentsline {figure}{\numberline {6.15}{\ignorespaces  Subfigures (a), (b) and (c) display mask estimates using RegSeg-Morph and at different iterations. The subfigures (d) and (e) display the lesion mask overlaid on the corresponding brain with different translucencies. The images use subject ID = 2. }}{64}{figure.6.15}}
\newlabel{fig:square-I-T}{{\caption@xref {fig:square-I-T}{ on input line 179}}{64}{Results}{figure.6.15}{}}
\@writefile{lot}{\contentsline {table}{\numberline {6.2}{\ignorespaces  Segmentation results (higher is better). Given are different Dice scores for the \textit  {Seg}, \textit  {RegSeg} and \textit  {RegSeg-Morph} algorithms. The Average run times were calculated for 1 iteration of \textit  {Seg} and 25 iterations of \textit  {RegSeg} and \textit  {RegSeg-Morph}.}}{65}{table.6.2}}
\newlabel{tab:table-seg-result}{{6.2}{65}{Segmentation results (higher is better). Given are different Dice scores for the \textit {Seg}, \textit {RegSeg} and \textit {RegSeg-Morph} algorithms. The Average run times were calculated for 1 iteration of \textit {Seg} and 25 iterations of \textit {RegSeg} and \textit {RegSeg-Morph}}{table.6.2}{}}
\@writefile{lot}{\contentsline {table}{\numberline {6.3}{\ignorespaces Registration results (lower is better). Given is the sum of squared differences (SSD) between the source image in subject coordinates, i.e. $I$, and the template image in subject coordinates, i.e. $T \circ \phi ^{-1}$ for the \textit  {Reg}, \textit  {Reg-True-Mask} and \textit  {RegSeg} algorithms. SSD is computed outside the segmentation mask this corresponds to the healthy tissue in the case of lesion segmentation. Moreover, it is computed for two distinct regions, one near the segmentation boundary and one over the entire image. Each algorithm ran for 25 iterations with \textit  {Reg} taking an average runtime of 3 minutes and \textit  {RegSeg} and \textit  {RegSeg-Morph} taking an average runtime of 4 minutes.}}{65}{table.6.3}}
\newlabel{tab:table-reg-result}{{6.3}{65}{Registration results (lower is better). Given is the sum of squared differences (SSD) between the source image in subject coordinates, i.e. $I$, and the template image in subject coordinates, i.e. $T \circ \phi ^{-1}$ for the \textit {Reg}, \textit {Reg-True-Mask} and \textit {RegSeg} algorithms. SSD is computed outside the segmentation mask this corresponds to the healthy tissue in the case of lesion segmentation. Moreover, it is computed for two distinct regions, one near the segmentation boundary and one over the entire image. Each algorithm ran for 25 iterations with \textit {Reg} taking an average runtime of 3 minutes and \textit {RegSeg} and \textit {RegSeg-Morph} taking an average runtime of 4 minutes}{table.6.3}{}}
\@writefile{lot}{\contentsline {table}{\numberline {6.4}{\ignorespaces  We performed a two-sided $t$-test to compare the segmentation performance of different algorithms. These particular tests were done with the Dice scores of 25 subjects. We excluded 3 subjects from the dataset whose lesion was in the cerebellum since this location made it hard to retrieve an axial slice that was comparable to the other subjects.}}{65}{table.6.4}}
\newlabel{tab:table-seg-result}{{6.4}{65}{We performed a two-sided $t$-test to compare the segmentation performance of different algorithms. These particular tests were done with the Dice scores of 25 subjects. We excluded 3 subjects from the dataset whose lesion was in the cerebellum since this location made it hard to retrieve an axial slice that was comparable to the other subjects}{table.6.4}{}}
\@writefile{lot}{\contentsline {table}{\numberline {6.5}{\ignorespaces We performed a two-sided $t$-test to compare the registration performance of different algorithms. These particular tests were done with the SSD between the template and 25 subjects. We excluded 3 subjects from the dataset whose lesion was in the cerebellum since this location made it hard to retrieve an axial slice that was comparable to the other subjects. }}{66}{table.6.5}}
\newlabel{tab:table-reg-result}{{6.5}{66}{We performed a two-sided $t$-test to compare the registration performance of different algorithms. These particular tests were done with the SSD between the template and 25 subjects. We excluded 3 subjects from the dataset whose lesion was in the cerebellum since this location made it hard to retrieve an axial slice that was comparable to the other subjects}{table.6.5}{}}
\@writefile{lof}{\contentsline {figure}{\numberline {6.16}{\ignorespaces  Registration and segmentation performance of the \textit  {RegSeg} algorithm, showing steady improvement in both the registration metric (SSD) and the segmentation metric (DICE) over 25 iterations. All metrics are mean values over the 25 subjects.}}{66}{figure.6.16}}
\newlabel{fig:square-I-T}{{6.3}{66}{Results}{figure.6.16}{}}
\@setckpt{Exp}{
\setcounter{page}{67}
\setcounter{equation}{0}
\setcounter{enumi}{0}
\setcounter{enumii}{0}
\setcounter{enumiii}{0}
\setcounter{enumiv}{0}
\setcounter{footnote}{0}
\setcounter{mpfootnote}{0}
\setcounter{ContinuedFloat}{0}
\setcounter{float@type}{2}
\setcounter{parentequation}{0}
\setcounter{algorithm}{2}
\setcounter{ALG@line}{11}
\setcounter{ALG@rem}{0}
\setcounter{ALG@nested}{0}
\setcounter{ALG@Lnr}{2}
\setcounter{ALG@blocknr}{10}
\setcounter{ALG@storecount}{0}
\setcounter{ALG@tmpcounter}{0}
\setcounter{subfigure}{74}
\setcounter{lofdepth}{1}
\setcounter{subtable}{0}
\setcounter{lotdepth}{1}
\setcounter{part}{0}
\setcounter{chapter}{6}
\setcounter{section}{3}
\setcounter{subsection}{0}
\setcounter{subsubsection}{0}
\setcounter{paragraph}{0}
\setcounter{subparagraph}{0}
\setcounter{figure}{16}
\setcounter{table}{5}
\setcounter{Item}{0}
\setcounter{Hfootnote}{0}
\setcounter{bookmark@seq@number}{52}
\setcounter{thm}{0}
\setcounter{BibCnt}{0}
\setcounter{NAT@ctr}{0}
\setcounter{section@level}{0}
\setcounter{maskedRefs}{0}
}
