\relax 
\providecommand\hyper@newdestlabel[2]{}
\citation{patil2013medical}
\citation{withey2008review}
\citation{withey2008review}
\newlabel{E2.2-seg}{{2.0.1}{6}{Image Segmentation}{equation.2.0.1}{}}
\providecommand*\caption@xref[2]{\@setref\relax\@undefined{#1}}
\newlabel{fig:square-warped-a}{{\caption@xref {fig:square-warped-a}{ on input line 12}}{6}{Image Segmentation}{equation.2.0.1}{}}
\@writefile{}{\contentsline {subfigure}{\numberline {(a)}{\ignorespaces (a) Axial slice \relax }}{6}{figure.2.1}}
\newlabel{fig:square-warped-a}{{\caption@xref {fig:square-warped-a}{ on input line 13}}{6}{Image Segmentation}{figure.2.1}{}}
\@writefile{}{\contentsline {subfigure}{\numberline {(b)}{\ignorespaces (b) Tissue segmentation\relax }}{6}{figure.2.1}}
\@writefile{lof}{\contentsline {figure}{\numberline {2.2}{\ignorespaces A segmentation of an axial brain slice. Red, green and blue correspond to white matter, grey matter and cerebrospinal fluid respectively. (Figure taken from [\citenum  {withey2008review}, Fig. 1]) }}{6}{figure.2.2}}
\newlabel{fig:square-I-T}{{\caption@xref {fig:square-I-T}{ on input line 15}}{6}{Image Segmentation}{figure.2.2}{}}
\citation{ashburner2005unified}
\citation{blaiotta2018generative}
\citation{farnoush2008image}
\citation{glocker2011random}
\@writefile{toc}{\contentsline {section}{\numberline {2.1}Generative Model-Based Methods}{7}{section.2.1}}
\@writefile{toc}{\contentsline {subsection}{\numberline {2.1.1}Univariate Models}{7}{subsection.2.1.1}}
\newlabel{E2.15}{{2.1.1}{7}{Univariate Models}{equation.2.1.1}{}}
\@writefile{toc}{\contentsline {subsection}{\numberline {2.1.2}Multivariate Models}{7}{subsection.2.1.2}}
\newlabel{E2.9}{{2.1.3}{7}{Multivariate Models}{equation.2.1.3}{}}
\newlabel{E2.9}{{2.1.4}{8}{Multivariate Models}{equation.2.1.4}{}}
\newlabel{E2.10}{{2.1.5}{8}{Multivariate Models}{equation.2.1.5}{}}
\newlabel{E2.10}{{2.1.6}{8}{Multivariate Models}{equation.2.1.6}{}}
\@writefile{toc}{\contentsline {subsection}{\numberline {2.1.3}Inference and Learning}{8}{subsection.2.1.3}}
\@writefile{toc}{\contentsline {subsubsection}{MLE and MAP }{8}{subsection.2.1.3}}
\citation{grimmett1973theorem}
\citation{ko2019accelerating}
\citation{blaiotta2016variational}
\citation{blei2017variational}
\citation{voulodimos2018deep}
\citation{goodfellow2016deep}
\citation{creswell2018generative}
\citation{rumelhart1985learning}
\citation{fukushima1982neocognitron}
\citation{kamnitsas2017efficient}
\citation{menze2014multimodal}
\citation{maier2017isles}
\newlabel{E2.15}{{2.1.7}{9}{MLE and MAP }{equation.2.1.7}{}}
\newlabel{E2.15}{{2.1.8}{9}{MLE and MAP }{equation.2.1.8}{}}
\@writefile{toc}{\contentsline {subsubsection}{Variational Inference}{9}{equation.2.1.8}}
\newlabel{E6}{{2.1.9}{9}{Variational Inference}{equation.2.1.9}{}}
\@writefile{toc}{\contentsline {section}{\numberline {2.2}Deep Learning Methods}{9}{section.2.2}}
\citation{minaee2021image}
\citation{rojas1996backpropagation}
\citation{sezgin2004survey}
\@writefile{toc}{\contentsline {subsection}{\numberline {2.2.1}Convolutional Neural Networks}{10}{subsection.2.2.1}}
\@writefile{toc}{\contentsline {section}{\numberline {2.3}Other Methods}{10}{section.2.3}}
\@writefile{toc}{\contentsline {subsection}{\numberline {2.3.1}Intensity Thresholding}{10}{subsection.2.3.1}}
\citation{otsu1979threshold}
\citation{otsu1979threshold}
\citation{mumford1989optimal}
\newlabel{E2.3-thresh}{{2.3.1}{11}{Intensity Thresholding}{equation.2.3.1}{}}
\@writefile{toc}{\contentsline {subsubsection}{ Otsu's Method}{11}{equation.2.3.1}}
\newlabel{E2.4}{{2.3.2}{11}{ Otsu's Method}{equation.2.3.2}{}}
\newlabel{E2.5}{{2.3.3}{11}{ Otsu's Method}{equation.2.3.3}{}}
\newlabel{E2.6}{{2.3.4}{11}{ Otsu's Method}{equation.2.3.4}{}}
\newlabel{E2.7}{{2.3.5}{11}{ Otsu's Method}{equation.2.3.5}{}}
\newlabel{E2.8}{{2.3.6}{11}{ Otsu's Method}{equation.2.3.6}{}}
\citation{pock2009algorithm}
\@writefile{toc}{\contentsline {subsection}{\numberline {2.3.2}Region-Based Methods}{12}{subsection.2.3.2}}
\@writefile{toc}{\contentsline {subsubsection}{Mumford-Shah Functional Model}{12}{subsection.2.3.2}}
\newlabel{E2.12}{{2.3.7}{12}{Mumford-Shah Functional Model}{equation.2.3.7}{}}
\newlabel{E2.13}{{2.3.8}{12}{Mumford-Shah Functional Model}{equation.2.3.8}{}}
\newlabel{E2.14}{{2.3.9}{12}{Mumford-Shah Functional Model}{equation.2.3.9}{}}
\@writefile{toc}{\contentsline {subsection}{\numberline {2.3.3}Deformable Shape Methods}{12}{subsection.2.3.3}}
\citation{aydin2021usage}
\citation{taha2015metrics}
\newlabel{E2.14}{{2.3.10}{13}{Deformable Shape Methods}{equation.2.3.10}{}}
\newlabel{E2.14}{{2.3.11}{13}{Deformable Shape Methods}{equation.2.3.11}{}}
\@writefile{toc}{\contentsline {section}{\numberline {2.4}Evaluation Methods}{13}{section.2.4}}
\newlabel{E-DICE}{{2.4.1}{13}{Evaluation Methods}{equation.2.4.1}{}}
\newlabel{E-DICE}{{2.4.2}{13}{Evaluation Methods}{equation.2.4.2}{}}
\newlabel{E-DICE}{{2.4.3}{13}{Evaluation Methods}{equation.2.4.3}{}}
\newlabel{E-DICE}{{2.4.4}{14}{Evaluation Methods}{equation.2.4.4}{}}
\@setckpt{imageSegmentation}{
\setcounter{page}{15}
\setcounter{equation}{4}
\setcounter{enumi}{0}
\setcounter{enumii}{0}
\setcounter{enumiii}{0}
\setcounter{enumiv}{0}
\setcounter{footnote}{0}
\setcounter{mpfootnote}{0}
\setcounter{ContinuedFloat}{0}
\setcounter{float@type}{2}
\setcounter{parentequation}{0}
\setcounter{algorithm}{0}
\setcounter{ALG@line}{0}
\setcounter{ALG@rem}{0}
\setcounter{ALG@nested}{0}
\setcounter{ALG@Lnr}{2}
\setcounter{ALG@blocknr}{10}
\setcounter{ALG@storecount}{0}
\setcounter{ALG@tmpcounter}{0}
\setcounter{subfigure}{2}
\setcounter{lofdepth}{1}
\setcounter{subtable}{0}
\setcounter{lotdepth}{1}
\setcounter{part}{0}
\setcounter{chapter}{2}
\setcounter{section}{4}
\setcounter{subsection}{0}
\setcounter{subsubsection}{0}
\setcounter{paragraph}{0}
\setcounter{subparagraph}{0}
\setcounter{figure}{2}
\setcounter{table}{0}
\setcounter{Item}{0}
\setcounter{Hfootnote}{0}
\setcounter{bookmark@seq@number}{16}
\setcounter{thm}{0}
\setcounter{BibCnt}{0}
\setcounter{NAT@ctr}{0}
\setcounter{section@level}{0}
\setcounter{maskedRefs}{0}
}
