\relax 
\providecommand\hyper@newdestlabel[2]{}
\@writefile{toc}{\contentsline {section}{\numberline {3.1}Spatial Transformation Between Image Domains}{16}{section.3.1}}
\newlabel{E2-trans}{{3.1.1}{16}{Spatial Transformation Between Image Domains}{equation.3.1.1}{}}
\newlabel{fig:square-warped-a}{{\caption@xref {fig:square-warped-a}{ on input line 29}}{17}{Spatial Transformation Between Image Domains}{equation.3.1.1}{}}
\@writefile{}{\contentsline {subfigure}{\numberline {(c)}{\ignorespaces (a) Identity \relax }}{17}{figure.3.1}}
\newlabel{fig:square-warped-a}{{\caption@xref {fig:square-warped-a}{ on input line 30}}{17}{Spatial Transformation Between Image Domains}{figure.3.1}{}}
\@writefile{}{\contentsline {subfigure}{\numberline {(d)}{\ignorespaces (b) Affine (rigid)\relax }}{17}{figure.3.1}}
\newlabel{fig:square-warped-a}{{\caption@xref {fig:square-warped-a}{ on input line 31}}{17}{Spatial Transformation Between Image Domains}{figure.3.1}{}}
\@writefile{}{\contentsline {subfigure}{\numberline {(e)}{\ignorespaces (c) Affine (non-rigid)\relax }}{17}{figure.3.1}}
\newlabel{fig:square-warped-a}{{\caption@xref {fig:square-warped-a}{ on input line 32}}{17}{Spatial Transformation Between Image Domains}{figure.3.1}{}}
\@writefile{}{\contentsline {subfigure}{\numberline {(f)}{\ignorespaces (d) Non-linear\relax }}{17}{figure.3.1}}
\newlabel{fig:square-warped-a}{{\caption@xref {fig:square-warped-a}{ on input line 35}}{17}{Spatial Transformation Between Image Domains}{figure.3.1}{}}
\@writefile{}{\contentsline {subfigure}{\numberline {(g)}{\ignorespaces (e) Identity \relax }}{17}{figure.3.1}}
\newlabel{fig:square-warped-a}{{\caption@xref {fig:square-warped-a}{ on input line 36}}{17}{Spatial Transformation Between Image Domains}{figure.3.1}{}}
\@writefile{}{\contentsline {subfigure}{\numberline {(h)}{\ignorespaces (f) Affine (rigid)\relax }}{17}{figure.3.1}}
\newlabel{fig:square-warped-a}{{\caption@xref {fig:square-warped-a}{ on input line 37}}{17}{Spatial Transformation Between Image Domains}{figure.3.1}{}}
\@writefile{}{\contentsline {subfigure}{\numberline {(i)}{\ignorespaces (g) Affine (non-rigid)\relax }}{17}{figure.3.1}}
\newlabel{fig:square-warped-a}{{\caption@xref {fig:square-warped-a}{ on input line 38}}{17}{Spatial Transformation Between Image Domains}{figure.3.1}{}}
\@writefile{}{\contentsline {subfigure}{\numberline {(j)}{\ignorespaces (h) Non-linear\relax }}{17}{figure.3.1}}
\@writefile{lof}{\contentsline {figure}{\numberline {3.2}{\ignorespaces  Different types of image spatial transformations. Transformations (a)-(c) are linear and (d) is non-linear. }}{17}{figure.3.2}}
\newlabel{fig:square-I-T}{{\caption@xref {fig:square-I-T}{ on input line 41}}{17}{Spatial Transformation Between Image Domains}{figure.3.2}{}}
\@writefile{toc}{\contentsline {subsection}{\numberline {3.1.1}Affine Registration}{17}{subsection.3.1.1}}
\newlabel{E4-affine}{{3.1.2}{17}{Affine Registration}{equation.3.1.2}{}}
\@writefile{toc}{\contentsline {subsection}{\numberline {3.1.2}Non-Linear Registration}{17}{subsection.3.1.2}}
\citation{ashburner2003spatial}
\citation{ashburner1999nonlinear}
\citation{crum2004non}
\@writefile{toc}{\contentsline {subsubsection}{Low-Frequency Basis Functions}{18}{subsection.3.1.2}}
\newlabel{EE5-basis}{{3.1.3}{18}{Low-Frequency Basis Functions}{equation.3.1.3}{}}
\newlabel{E6-basis-param}{{3.1.4}{18}{Low-Frequency Basis Functions}{equation.3.1.4}{}}
\@writefile{toc}{\contentsline {subsubsection}{Radial Basis Functions}{18}{equation.3.1.4}}
\citation{rueckert2006diffeomorphic}
\newlabel{E7-radial}{{3.1.5}{19}{Radial Basis Functions}{equation.3.1.5}{}}
\@writefile{toc}{\contentsline {subsubsection}{Large Deformation Diffeomorphic Metric Mapping}{19}{equation.3.1.5}}
\newlabel{E8-fluid}{{3.1.6}{19}{Large Deformation Diffeomorphic Metric Mapping}{equation.3.1.6}{}}
\citation{younes2009evolutions}
\citation{sotiras2013deformable}
\citation{blaiotta2018generative}
\citation{ashburner2007fast}
\citation{miller2002metrics}
\newlabel{E8-fluid}{{3.1.7}{20}{Large Deformation Diffeomorphic Metric Mapping}{equation.3.1.7}{}}
\newlabel{fig:square-warped-a}{{\caption@xref {fig:square-warped-a}{ on input line 125}}{20}{Large Deformation Diffeomorphic Metric Mapping}{equation.3.1.7}{}}
\@writefile{}{\contentsline {subfigure}{\numberline {(k)}{\ignorespaces  (a) Source ($I$) \relax }}{20}{figure.3.3}}
\newlabel{fig:square-warped-a}{{\caption@xref {fig:square-warped-a}{ on input line 126}}{20}{Large Deformation Diffeomorphic Metric Mapping}{figure.3.3}{}}
\@writefile{}{\contentsline {subfigure}{\numberline {(l)}{\ignorespaces  (b) Target ($T$) \relax }}{20}{figure.3.3}}
\newlabel{fig:square-warped-a}{{\caption@xref {fig:square-warped-a}{ on input line 128}}{20}{Large Deformation Diffeomorphic Metric Mapping}{figure.3.3}{}}
\@writefile{}{\contentsline {subfigure}{\numberline {(m)}{\ignorespaces  (c)Identity map ($Id$) \relax }}{20}{figure.3.3}}
\newlabel{fig:square-warped-a}{{\caption@xref {fig:square-warped-a}{ on input line 129}}{20}{Large Deformation Diffeomorphic Metric Mapping}{figure.3.3}{}}
\@writefile{}{\contentsline {subfigure}{\numberline {(n)}{\ignorespaces  (d) Source ($I \circ Id$)\relax }}{20}{figure.3.3}}
\newlabel{fig:square-warped-a}{{\caption@xref {fig:square-warped-a}{ on input line 130}}{20}{Large Deformation Diffeomorphic Metric Mapping}{figure.3.3}{}}
\@writefile{}{\contentsline {subfigure}{\numberline {(o)}{\ignorespaces  (e) Source ($I \circ \phi $)\relax }}{20}{figure.3.3}}
\newlabel{fig:square-warped-a}{{\caption@xref {fig:square-warped-a}{ on input line 131}}{20}{Large Deformation Diffeomorphic Metric Mapping}{figure.3.3}{}}
\@writefile{}{\contentsline {subfigure}{\numberline {(p)}{\ignorespaces  (f) Warp ($\phi $) \relax }}{20}{figure.3.3}}
\@writefile{lof}{\contentsline {figure}{\numberline {3.4}{\ignorespaces  Deformable registration. Source and target images are to be registered such that the image of a square is warped onto an image of a circle along with the source images with superimposed coordinates.}}{20}{figure.3.4}}
\newlabel{fig:warp}{{\caption@xref {fig:warp}{ on input line 133}}{20}{Large Deformation Diffeomorphic Metric Mapping}{figure.3.4}{}}
\citation{glocker2011random}
\@writefile{toc}{\contentsline {section}{\numberline {3.2}Quantifying Image Alignment}{21}{section.3.2}}
\newlabel{E3-opt}{{3.2.1}{21}{Quantifying Image Alignment}{equation.3.2.1}{}}
\@writefile{toc}{\contentsline {subsection}{\numberline {3.2.1}Point-wise Similarity Measures}{21}{subsection.3.2.1}}
\newlabel{E9-SSD}{{3.2.2}{21}{Point-wise Similarity Measures}{equation.3.2.2}{}}
\newlabel{E10-SAD}{{3.2.3}{21}{Point-wise Similarity Measures}{equation.3.2.3}{}}
\@writefile{toc}{\contentsline {subsection}{\numberline {3.2.2}Global Similarity Measures}{21}{subsection.3.2.2}}
\citation{ashburner1999nonlinear}
\newlabel{E10-SAD}{{3.2.4}{22}{Global Similarity Measures}{equation.3.2.4}{}}
\newlabel{E11-mean}{{3.2.5}{22}{Global Similarity Measures}{equation.3.2.5}{}}
\newlabel{E13-entropy-1}{{3.2.6}{22}{Global Similarity Measures}{equation.3.2.6}{}}
\newlabel{E14-entropy-2}{{3.2.7}{22}{Global Similarity Measures}{equation.3.2.7}{}}
\newlabel{E12-MI}{{3.2.8}{22}{Global Similarity Measures}{equation.3.2.8}{}}
\newlabel{E13-ECC}{{3.2.9}{22}{Global Similarity Measures}{equation.3.2.9}{}}
\citation{ashburner1999nonlinear}
\citation{christensen1996deformable}
\@writefile{toc}{\contentsline {subsection}{\numberline {3.2.3}Regularized Similarity}{23}{subsection.3.2.3}}
\newlabel{E3-opt}{{3.2.10}{23}{Regularized Similarity}{equation.3.2.10}{}}
\newlabel{E5-basis}{{3.2.11}{23}{Regularized Similarity}{equation.3.2.11}{}}
\newlabel{E5-basis}{{3.2.12}{23}{Regularized Similarity}{equation.3.2.12}{}}
\citation{sotiras2013deformable}
\citation{risholm2010bayesian}
\citation{risholm2010bayesian}
\newlabel{E5-basis}{{3.2.15}{24}{Regularized Similarity}{equation.3.2.15}{}}
\@writefile{toc}{\contentsline {subsection}{\numberline {3.2.4}Generative Model Perspective}{24}{subsection.3.2.4}}
\newlabel{E14-LH}{{3.2.16}{24}{Generative Model Perspective}{equation.3.2.16}{}}
\newlabel{E14-LH}{{3.2.17}{24}{Generative Model Perspective}{equation.3.2.17}{}}
\newlabel{E14-LH}{{3.2.18}{24}{Generative Model Perspective}{equation.3.2.18}{}}
\newlabel{E14-LH}{{3.2.19}{24}{Generative Model Perspective}{equation.3.2.19}{}}
\newlabel{E14-LH}{{3.2.21}{25}{Generative Model Perspective}{equation.3.2.21}{}}
\newlabel{E3-opt}{{3.2.22}{25}{Generative Model Perspective}{equation.3.2.22}{}}
\newlabel{E14-LH}{{3.2.23}{25}{Generative Model Perspective}{equation.3.2.23}{}}
\@setckpt{imageRegistration}{
\setcounter{page}{26}
\setcounter{equation}{23}
\setcounter{enumi}{0}
\setcounter{enumii}{0}
\setcounter{enumiii}{0}
\setcounter{enumiv}{0}
\setcounter{footnote}{0}
\setcounter{mpfootnote}{0}
\setcounter{ContinuedFloat}{0}
\setcounter{float@type}{2}
\setcounter{parentequation}{0}
\setcounter{algorithm}{0}
\setcounter{ALG@line}{0}
\setcounter{ALG@rem}{0}
\setcounter{ALG@nested}{0}
\setcounter{ALG@Lnr}{2}
\setcounter{ALG@blocknr}{10}
\setcounter{ALG@storecount}{0}
\setcounter{ALG@tmpcounter}{0}
\setcounter{subfigure}{16}
\setcounter{lofdepth}{1}
\setcounter{subtable}{0}
\setcounter{lotdepth}{1}
\setcounter{part}{0}
\setcounter{chapter}{3}
\setcounter{section}{2}
\setcounter{subsection}{4}
\setcounter{subsubsection}{0}
\setcounter{paragraph}{0}
\setcounter{subparagraph}{0}
\setcounter{figure}{4}
\setcounter{table}{0}
\setcounter{Item}{0}
\setcounter{Hfootnote}{0}
\setcounter{bookmark@seq@number}{25}
\setcounter{thm}{0}
\setcounter{BibCnt}{0}
\setcounter{NAT@ctr}{0}
\setcounter{section@level}{0}
\setcounter{maskedRefs}{0}
}
