\relax 
\providecommand\hyper@newdestlabel[2]{}
\citation{sled1998nonparametric}
\citation{ashburner2005unified}
\citation{blaiotta2018generative}
\citation{cabezas2011review}
\newlabel{E2.1-image}{{1.0.1}{4}{Introduction}{equation.1.0.1}{}}
\@setckpt{intro}{
\setcounter{page}{5}
\setcounter{equation}{1}
\setcounter{enumi}{0}
\setcounter{enumii}{0}
\setcounter{enumiii}{0}
\setcounter{enumiv}{0}
\setcounter{footnote}{0}
\setcounter{mpfootnote}{0}
\setcounter{ContinuedFloat}{0}
\setcounter{float@type}{2}
\setcounter{parentequation}{0}
\setcounter{algorithm}{0}
\setcounter{ALG@line}{0}
\setcounter{ALG@rem}{0}
\setcounter{ALG@nested}{0}
\setcounter{ALG@Lnr}{2}
\setcounter{ALG@blocknr}{10}
\setcounter{ALG@storecount}{0}
\setcounter{ALG@tmpcounter}{0}
\setcounter{subfigure}{0}
\setcounter{lofdepth}{1}
\setcounter{subtable}{0}
\setcounter{lotdepth}{1}
\setcounter{part}{0}
\setcounter{chapter}{1}
\setcounter{section}{0}
\setcounter{subsection}{0}
\setcounter{subsubsection}{0}
\setcounter{paragraph}{0}
\setcounter{subparagraph}{0}
\setcounter{figure}{0}
\setcounter{table}{0}
\setcounter{Item}{0}
\setcounter{Hfootnote}{0}
\setcounter{bookmark@seq@number}{4}
\setcounter{thm}{0}
\setcounter{BibCnt}{0}
\setcounter{NAT@ctr}{0}
\setcounter{section@level}{0}
\setcounter{maskedRefs}{0}
}
