\relax 
\providecommand\hyper@newdestlabel[2]{}
\providecommand\HyperFirstAtBeginDocument{\AtBeginDocument}
\HyperFirstAtBeginDocument{\ifx\hyper@anchor\@undefined
\global\let\oldcontentsline\contentsline
\gdef\contentsline#1#2#3#4{\oldcontentsline{#1}{#2}{#3}}
\global\let\oldnewlabel\newlabel
\gdef\newlabel#1#2{\newlabelxx{#1}#2}
\gdef\newlabelxx#1#2#3#4#5#6{\oldnewlabel{#1}{{#2}{#3}}}
\AtEndDocument{\ifx\hyper@anchor\@undefined
\let\contentsline\oldcontentsline
\let\newlabel\oldnewlabel
\fi}
\fi}
\global\let\hyper@last\relax 
\gdef\HyperFirstAtBeginDocument#1{#1}
\providecommand\HyField@AuxAddToFields[1]{}
\providecommand\HyField@AuxAddToCoFields[2]{}
\bibstyle{apacite}
\@writefile{toc}{\contentsline {section}{Table of Contents}{v}{chapter*.3}}
\citation{withey2008review}
\citation{maier2017isles}
\citation{liew2022enigma}
\citation{reinhold2019evaluating}
\@writefile{toc}{\contentsline {chapter}{List of Figures}{ix}{chapter*.5}}
\citation{maier2017isles}
\@writefile{toc}{\contentsline {chapter}{List of Tables}{xi}{chapter*.6}}
\@writefile{toc}{\contentsline {chapter}{\numberline {1}Introduction}{1}{chapter.1}}
\@writefile{lof}{\addvspace {10\p@ }}
\@writefile{lot}{\addvspace {10\p@ }}
\newlabel{chap:intro}{{1}{1}{Introduction}{chapter.1}{}}
\@input{intro.aux}
\@writefile{toc}{\contentsline {chapter}{\numberline {2}Image Segmentation}{5}{chapter.2}}
\@writefile{lof}{\addvspace {10\p@ }}
\@writefile{lot}{\addvspace {10\p@ }}
\@input{imageSegmentation.aux}
\@writefile{toc}{\contentsline {chapter}{\numberline {3}Image Registration}{15}{chapter.3}}
\@writefile{lof}{\addvspace {10\p@ }}
\@writefile{lot}{\addvspace {10\p@ }}
\@input{imageRegistration.aux}
\@writefile{toc}{\contentsline {chapter}{\numberline {4}Markov Random Fields}{26}{chapter.4}}
\@writefile{lof}{\addvspace {10\p@ }}
\@writefile{lot}{\addvspace {10\p@ }}
\@input{mrf.aux}
\@writefile{toc}{\contentsline {chapter}{\numberline {5}Joint Registration and Segmentation}{38}{chapter.5}}
\@writefile{lof}{\addvspace {10\p@ }}
\@writefile{lot}{\addvspace {10\p@ }}
\@input{RegSeg.aux}
\@writefile{toc}{\contentsline {chapter}{\numberline {6}Experiments on Neuroimages}{55}{chapter.6}}
\@writefile{lof}{\addvspace {10\p@ }}
\@writefile{lot}{\addvspace {10\p@ }}
\@input{Exp.aux}
\@writefile{toc}{\contentsline {chapter}{\numberline {7}Conclusion}{67}{chapter.7}}
\@writefile{lof}{\addvspace {10\p@ }}
\@writefile{lot}{\addvspace {10\p@ }}
\@input{conclusion.aux}
\@input{appendix_A.aux}
\@input{appendix_B.aux}
\citation{*}
\bibdata{biblio}
\bibcite{ashburner2007fast}{{1}{{\APACyear {2007}}}{{Ashburner}}{{Ashburner}}}
\bibcite{ashburner1994statistical}{{2}{{\APACyear {1994}}}{{Ashburner\ \BOthers {.}}}{{Ashburner\ \BOthers {.}}}}
\bibcite{ashburner1999nonlinear}{{3}{{\APACyear {1999}}}{{Ashburner\ \BBA  {} Friston}}{{Ashburner\ \BBA  {} Friston}}}
\bibcite{ashburner2005unified}{{4}{{\APACyear {2005}}}{{Ashburner\ \BBA  {} Friston}}{{Ashburner\ \BBA  {} Friston}}}
\bibcite{ashburner2003spatial}{{5}{{\APACyear {2003}}}{{Ashburner\ \BOthers {.}}}{{Ashburner, Friston,{}\ \BOthers {.}}}}
\bibcite{aydin2021usage}{{6}{{\APACyear {2021}}}{{Aydin\ \BOthers {.}}}{{Aydin\ \BOthers {.}}}}
\bibcite{beal2018gekko}{{7}{{\APACyear {2018}}}{{Beal\ \BOthers {.}}}{{Beal, Hill, Martin,{}\ \BBA  {} Hedengren}}}
\bibcite{blaiotta2016variational}{{8}{{\APACyear {2016}}}{{Blaiotta\ \BOthers {.}}}{{Blaiotta, Cardoso,{}\ \BBA  {} Ashburner}}}
\bibcite{blaiotta2018generative}{{9}{{\APACyear {2018}}}{{Blaiotta\ \BOthers {.}}}{{Blaiotta, Freund, Cardoso,{}\ \BBA  {} Ashburner}}}
\bibcite{blei2017variational}{{10}{{\APACyear {2017}}}{{Blei\ \BOthers {.}}}{{Blei, Kucukelbir,{}\ \BBA  {} McAuliffe}}}
\bibcite{cabezas2011review}{{11}{{\APACyear {2011}}}{{Cabezas\ \BOthers {.}}}{{Cabezas, Oliver, Llad{\'o}, Freixenet,{}\ \BBA  {} Cuadra}}}
\bibcite{choi2000injectivity}{{12}{{\APACyear {2000}}}{{Choi\ \BBA  {} Lee}}{{Choi\ \BBA  {} Lee}}}
\bibcite{christensen1996deformable}{{13}{{\APACyear {1996}}}{{Christensen\ \BOthers {.}}}{{Christensen, Rabbitt,{}\ \BBA  {} Miller}}}
\bibcite{creswell2018generative}{{14}{{\APACyear {2018}}}{{Creswell\ \BOthers {.}}}{{Creswell\ \BOthers {.}}}}
\bibcite{crinion2007spatial}{{15}{{\APACyear {2007}}}{{Crinion\ \BOthers {.}}}{{Crinion\ \BOthers {.}}}}
\bibcite{crum2004non}{{16}{{\APACyear {2004}}}{{Crum\ \BOthers {.}}}{{Crum, Hartkens,{}\ \BBA  {} Hill}}}
\bibcite{farnoush2008image}{{17}{{\APACyear {2008}}}{{Farnoush\ \BBA  {} ZAR}}{{Farnoush\ \BBA  {} ZAR}}}
\bibcite{fischl2004automatically}{{18}{{\APACyear {2004}}}{{Fischl\ \BOthers {.}}}{{Fischl\ \BOthers {.}}}}
\bibcite{fonov2011unbiased}{{19}{{\APACyear {2011}}}{{Fonov\ \BOthers {.}}}{{Fonov\ \BOthers {.}}}}
\bibcite{fukushima1982neocognitron}{{20}{{\APACyear {1982}}}{{Fukushima\ \BBA  {} Miyake}}{{Fukushima\ \BBA  {} Miyake}}}
\bibcite{glocker2008dense}{{21}{{\APACyear {2008}}}{{B.~Glocker\ \BOthers {.}}}{{B.~Glocker, Komodakis, Tziritas, Navab,{}\ \BBA  {} Paragios}}}
\bibcite{glocker2011random}{{22}{{\APACyear {2011}}}{{B\BPBI  M.~Glocker}}{{B\BPBI  M.~Glocker}}}
\bibcite{goodfellow2016deep}{{23}{{\APACyear {2016}}}{{Goodfellow\ \BOthers {.}}}{{Goodfellow, Bengio,{}\ \BBA  {} Courville}}}
\bibcite{grimmett1973theorem}{{24}{{\APACyear {1973}}}{{Grimmett}}{{Grimmett}}}
\bibcite{hinton2007recognize}{{25}{{\APACyear {2007}}}{{Hinton}}{{Hinton}}}
\bibcite{kamnitsas2017efficient}{{26}{{\APACyear {2017}}}{{Kamnitsas\ \BOthers {.}}}{{Kamnitsas\ \BOthers {.}}}}
\bibcite{klein2009evaluation}{{27}{{\APACyear {2009}}}{{Klein\ \BOthers {.}}}{{Klein\ \BOthers {.}}}}
\bibcite{ko2019accelerating}{{28}{{\APACyear {2019}}}{{Ko\ \BOthers {.}}}{{Ko, Chai, Rutenbar, Brooks,{}\ \BBA  {} Wei}}}
\bibcite{komodakis2015playing}{{29}{{\APACyear {2015}}}{{Komodakis\ \BBA  {} Pesquet}}{{Komodakis\ \BBA  {} Pesquet}}}
\bibcite{liew2018large}{{30}{{\APACyear {2018}}}{{Liew\ \BOthers {.}}}{{Liew\ \BOthers {.}}}}
\bibcite{liew2022enigma}{{31}{{\APACyear {2022}}}{{Liew\ \BOthers {.}}}{{Liew\ \BOthers {.}}}}
\bibcite{maier2017isles}{{32}{{\APACyear {2017}}}{{Maier\ \BOthers {.}}}{{Maier\ \BOthers {.}}}}
\bibcite{menze2014multimodal}{{33}{{\APACyear {2014}}}{{Menze\ \BOthers {.}}}{{Menze\ \BOthers {.}}}}
\bibcite{miller2002metrics}{{34}{{\APACyear {2002}}}{{Miller\ \BOthers {.}}}{{Miller, Trouv{\'e},{}\ \BBA  {} Younes}}}
\bibcite{minaee2021image}{{35}{{\APACyear {2021}}}{{Minaee\ \BOthers {.}}}{{Minaee\ \BOthers {.}}}}
\bibcite{moon1996expectation}{{36}{{\APACyear {1996}}}{{Moon}}{{Moon}}}
\bibcite{mumford1989optimal}{{37}{{\APACyear {1989}}}{{Mumford\ \BBA  {} Shah}}{{Mumford\ \BBA  {} Shah}}}
\bibcite{nesterov1983method}{{38}{{\APACyear {1983}}}{{Nesterov}}{{Nesterov}}}
\bibcite{niethammer2019_cvpr}{{39}{{\APACyear {2019}}}{{Niethammer\ \BOthers {.}}}{{Niethammer, Kwitt,{}\ \BBA  {} Fran{\c {c}}ois-Xavier}}}
\bibcite{otsu1979threshold}{{40}{{\APACyear {1979}}}{{Otsu}}{{Otsu}}}
\bibcite{patil2013medical}{{41}{{\APACyear {2013}}}{{Patil\ \BBA  {} Deore}}{{Patil\ \BBA  {} Deore}}}
\bibcite{pock2009algorithm}{{42}{{\APACyear {2009}}}{{Pock\ \BOthers {.}}}{{Pock, Cremers, Bischof,{}\ \BBA  {} Chambolle}}}
\bibcite{reinhold2019evaluating}{{43}{{\APACyear {2019}}}{{Reinhold\ \BOthers {.}}}{{Reinhold, Dewey, Carass,{}\ \BBA  {} Prince}}}
\bibcite{risholm2010bayesian}{{44}{{\APACyear {2010}}}{{Risholm\ \BOthers {.}}}{{Risholm, Samset,{}\ \BBA  {} Wells}}}
\bibcite{rojas1996backpropagation}{{45}{{\APACyear {1996}}}{{Rojas}}{{Rojas}}}
\bibcite{rueckert2006diffeomorphic}{{46}{{\APACyear {2006}}}{{Rueckert\ \BOthers {.}}}{{Rueckert, Aljabar, Heckemann, Hajnal,{}\ \BBA  {} Hammers}}}
\bibcite{rumelhart1985learning}{{47}{{\APACyear {1985}}}{{Rumelhart\ \BOthers {.}}}{{Rumelhart, Hinton,{}\ \BBA  {} Williams}}}
\bibcite{seeger2004gaussian}{{48}{{\APACyear {2004}}}{{Seeger}}{{Seeger}}}
\bibcite{seghier2008lesion}{{49}{{\APACyear {2008}}}{{Seghier\ \BOthers {.}}}{{Seghier, Ramlackhansingh, Crinion, Leff,{}\ \BBA  {} Price}}}
\bibcite{sezgin2004survey}{{50}{{\APACyear {2004}}}{{Sezgin\ \BBA  {} Sankur}}{{Sezgin\ \BBA  {} Sankur}}}
\bibcite{shen2019networks}{{51}{{\APACyear {2019}}}{{Shen, Han,{}\ \BOthers {.}}}{{Shen, Han, Xu,{}\ \BBA  {} Niethammer}}}
\bibcite{shen2019region}{{52}{{\APACyear {2019}}}{{Shen, Vialard,{}\ \BBA  {} Niethammer}}{{Shen, Vialard,{}\ \BBA  {} Niethammer}}}
\bibcite{simonyan2014very}{{53}{{\APACyear {2014}}}{{Simonyan\ \BBA  {} Zisserman}}{{Simonyan\ \BBA  {} Zisserman}}}
\bibcite{sled1998nonparametric}{{54}{{\APACyear {1998}}}{{Sled\ \BOthers {.}}}{{Sled, Zijdenbos,{}\ \BBA  {} Evans}}}
\bibcite{sotiras2013deformable}{{55}{{\APACyear {2013}}}{{Sotiras\ \BOthers {.}}}{{Sotiras, Davatzikos,{}\ \BBA  {} Paragios}}}
\bibcite{taha2015metrics}{{56}{{\APACyear {2015}}}{{Taha\ \BBA  {} Hanbury}}{{Taha\ \BBA  {} Hanbury}}}
\bibcite{tambe2013image}{{57}{{\APACyear {2013}}}{{Tambe\ \BOthers {.}}}{{Tambe, Kulhare, Nirmal,{}\ \BBA  {} Prajapati}}}
\bibcite{voulodimos2018deep}{{58}{{\APACyear {2018}}}{{Voulodimos\ \BOthers {.}}}{{Voulodimos, Doulamis, Doulamis,{}\ \BBA  {} Protopapadakis}}}
\bibcite{withey2008review}{{59}{{\APACyear {2008}}}{{Withey\ \BBA  {} Koles}}{{Withey\ \BBA  {} Koles}}}
\bibcite{xu2019deepatlas}{{60}{{\APACyear {2019}}}{{Xu\ \BBA  {} Niethammer}}{{Xu\ \BBA  {} Niethammer}}}
\bibcite{yang2016dlmia}{{61}{{\APACyear {2016}}}{{Yang\ \BOthers {.}}}{{Yang, Kwitt,{}\ \BBA  {} Niethammer}}}
\bibcite{yang2017quicksilver}{{62}{{\APACyear {2017}}}{{Yang\ \BOthers {.}}}{{Yang, Kwitt, Styner,{}\ \BBA  {} Niethammer}}}
\bibcite{younes2009evolutions}{{63}{{\APACyear {2009}}}{{Younes\ \BOthers {.}}}{{Younes, Arrate,{}\ \BBA  {} Miller}}}
\bibcite{zitova2003image}{{64}{{\APACyear {2003}}}{{Zitova\ \BBA  {} Flusser}}{{Zitova\ \BBA  {} Flusser}}}
\@writefile{toc}{\contentsline {chapter}{Index}{74}{appendix*.8}}
