\addvspace {10\p@ }
\addvspace {10\p@ }
\addvspace {10\p@ }
\addvspace {10\p@ }
\addvspace {10\p@ }
\contentsline {table}{\numberline {5.1}{\ignorespaces Notation}}{39}{table.5.1}
\contentsline {table}{\numberline {5.2}{\ignorespaces Registration results (lower is better). Given is the sum of squared differences (SSD) between the source image in subject coordinates, i.e. $I$, and the template image in subject coordinates, i.e. $T \circ \phi ^{-1}$. SSD is computed outside the segmentation mask this corresponds to the healthy tissue in the case of lesion segmentation. Moreover, it is computed for two distinct regions, one near the segmentation boundary and one over the entire image. }}{54}{table.5.2}
\contentsline {table}{\numberline {5.3}{\ignorespaces Segmentation results (higher is better). Given is the Dice score between true and estimated lesion region, estimated using two algorithms \textit {Seg} and \textit {RegSeg}.}}{54}{table.5.3}
\addvspace {10\p@ }
\contentsline {table}{\numberline {6.1}{\ignorespaces For SISS, cases with sub-acute ischemic stroke lesions have been collected from clinical routine acquisition. The following table of characteristics reflect the diversity of the SISS dataset. Table taken from [\citenum {maier2017isles}, Tbl. 3].}}{58}{table.6.1}
\contentsline {table}{\numberline {6.2}{\ignorespaces Segmentation results (higher is better). Given are different Dice scores for the \textit {Seg}, \textit {RegSeg} and \textit {RegSeg-Morph} algorithms. The Average run times were calculated for 1 iteration of \textit {Seg} and 25 iterations of \textit {RegSeg} and \textit {RegSeg-Morph}.}}{65}{table.6.2}
\contentsline {table}{\numberline {6.3}{\ignorespaces Registration results (lower is better). Given is the sum of squared differences (SSD) between the source image in subject coordinates, i.e. $I$, and the template image in subject coordinates, i.e. $T \circ \phi ^{-1}$ for the \textit {Reg}, \textit {Reg-True-Mask} and \textit {RegSeg} algorithms. SSD is computed outside the segmentation mask this corresponds to the healthy tissue in the case of lesion segmentation. Moreover, it is computed for two distinct regions, one near the segmentation boundary and one over the entire image. Each algorithm ran for 25 iterations with \textit {Reg} taking an average runtime of 3 minutes and \textit {RegSeg} and \textit {RegSeg-Morph} taking an average runtime of 4 minutes.}}{65}{table.6.3}
\contentsline {table}{\numberline {6.4}{\ignorespaces We performed a two-sided $t$-test to compare the segmentation performance of different algorithms. These particular tests were done with the Dice scores of 25 subjects. We excluded 3 subjects from the dataset whose lesion was in the cerebellum since this location made it hard to retrieve an axial slice that was comparable to the other subjects.}}{65}{table.6.4}
\contentsline {table}{\numberline {6.5}{\ignorespaces We performed a two-sided $t$-test to compare the registration performance of different algorithms. These particular tests were done with the SSD between the template and 25 subjects. We excluded 3 subjects from the dataset whose lesion was in the cerebellum since this location made it hard to retrieve an axial slice that was comparable to the other subjects. }}{66}{table.6.5}
\addvspace {10\p@ }
