\relax 
\providecommand\hyper@newdestlabel[2]{}
\citation{glocker2011random}
\citation{choi2000injectivity}
\citation{glocker2008dense}
\@writefile{toc}{\contentsline {section}{\numberline {4.1}Random Fields}{27}{section.4.1}}
\@writefile{toc}{\contentsline {section}{\numberline {4.2}Neighbourhood Structures}{28}{section.4.2}}
\newlabel{fig:square-warped-a}{{\caption@xref {fig:square-warped-a}{ on input line 18}}{28}{Neighbourhood Structures}{section.4.2}{}}
\@writefile{}{\contentsline {subfigure}{\numberline {(q)}{\ignorespaces (a) First-order\relax }}{28}{figure.4.1}}
\newlabel{fig:square-warped-a}{{\caption@xref {fig:square-warped-a}{ on input line 19}}{28}{Neighbourhood Structures}{figure.4.1}{}}
\@writefile{}{\contentsline {subfigure}{\numberline {(r)}{\ignorespaces (b) Second-order\relax }}{28}{figure.4.1}}
\newlabel{fig:square-warped-a}{{\caption@xref {fig:square-warped-a}{ on input line 20}}{28}{Neighbourhood Structures}{figure.4.1}{}}
\@writefile{}{\contentsline {subfigure}{\numberline {(s)}{\ignorespaces (b) Third-order\relax }}{28}{figure.4.1}}
\@writefile{lof}{\contentsline {figure}{\numberline {4.2}{\ignorespaces Random fields with different orders.}}{28}{figure.4.2}}
\newlabel{fig:toy}{{\caption@xref {fig:toy}{ on input line 22}}{28}{Neighbourhood Structures}{figure.4.2}{}}
\citation{grimmett1973theorem}
\@writefile{toc}{\contentsline {section}{\numberline {4.3}Markov Random Fields}{29}{section.4.3}}
\newlabel{mattstemperflaring}{{4.3.1}{29}{Markov Random Field}{thm.4.3.1}{}}
\newlabel{E1-mrf}{{4.3.1}{29}{Markov Random Field}{equation.4.3.1}{}}
\newlabel{mattstemperflaring}{{4.3.2}{29}{Gibbs Random Field}{thm.4.3.2}{}}
\newlabel{E2-grf}{{4.3.3}{29}{Gibbs Random Field}{equation.4.3.3}{}}
\newlabel{mattstemperflaring}{{4.3.3}{29}{Hammersley-Clifford-Theorem}{thm.4.3.3}{}}
\@writefile{toc}{\contentsline {section}{\numberline {4.4}Inference with Markov Random Fields}{30}{section.4.4}}
\newlabel{fig:square-warped-a}{{\caption@xref {fig:square-warped-a}{ on input line 52}}{30}{Inference with Markov Random Fields}{section.4.4}{}}
\@writefile{}{\contentsline {subfigure}{\numberline {(t)}{\ignorespaces (a) Markov random field\relax }}{30}{figure.4.3}}
\newlabel{fig:square-warped-a}{{\caption@xref {fig:square-warped-a}{ on input line 53}}{30}{Inference with Markov Random Fields}{figure.4.3}{}}
\@writefile{}{\contentsline {subfigure}{\numberline {(u)}{\ignorespaces (b) Likelihood clique\relax }}{30}{figure.4.3}}
\newlabel{fig:square-warped-a}{{\caption@xref {fig:square-warped-a}{ on input line 54}}{30}{Inference with Markov Random Fields}{figure.4.3}{}}
\@writefile{}{\contentsline {subfigure}{\numberline {(v)}{\ignorespaces (c) Prior clique\relax }}{30}{figure.4.3}}
\@writefile{lof}{\contentsline {figure}{\numberline {4.4}{\ignorespaces  Sub-figure (a) displays a graphical representation of the a Markov random field over $\mathbf  {X} \cup \mathbf  {Y}$ where $| \mathbf  {X}|=| \mathbf  {Y}| =9$. The $x_i$ and $y_i$ are realizations of random variables $X_i \in \mathbf  {X}$ and $X_i \in \mathbf  {X}$ respectively. The observed variables are represented by shaded nodes and latent variables are represented as non-shaded nodes. Sub-figure (b) displays the first type of clique, which depends on a latent variable and an observed variable. Sub-figure (b) displays the second type of clique, which depends on two neighbouring latent variables.}}{30}{figure.4.4}}
\newlabel{fig:toy}{{\caption@xref {fig:toy}{ on input line 57}}{30}{Inference with Markov Random Fields}{figure.4.4}{}}
\newlabel{E2-grf}{{4.4.1}{30}{Inference with Markov Random Fields}{equation.4.4.1}{}}
\newlabel{E2-grf}{{4.4.2}{30}{Inference with Markov Random Fields}{equation.4.4.2}{}}
\newlabel{E2-grf}{{4.4.3}{31}{Inference with Markov Random Fields}{equation.4.4.3}{}}
\@writefile{toc}{\contentsline {subsection}{\numberline {4.4.1}MAP estimates}{31}{subsection.4.4.1}}
\@writefile{toc}{\contentsline {subsection}{\numberline {4.4.2}MRF Likelihood Distribution}{31}{subsection.4.4.2}}
\newlabel{E3-likelihood}{{4.4.4}{31}{MRF Likelihood Distribution}{equation.4.4.4}{}}
\@writefile{toc}{\contentsline {subsection}{\numberline {4.4.3}MRF Prior Distribution}{32}{subsection.4.4.3}}
\newlabel{E4-prior-1}{{4.4.6}{32}{MRF Prior Distribution}{equation.4.4.6}{}}
\newlabel{E5-prior-2}{{4.4.7}{32}{MRF Prior Distribution}{equation.4.4.7}{}}
\@writefile{toc}{\contentsline {subsection}{\numberline {4.4.4}MRF Energy Function}{32}{subsection.4.4.4}}
\newlabel{E6-energy-1}{{4.4.9}{32}{MRF Energy Function}{equation.4.4.9}{}}
\citation{glocker2008dense}
\citation{komodakis2015playing}
\citation{glocker2008dense}
\@writefile{toc}{\contentsline {subsection}{\numberline {4.4.5}Linearization of the Energy}{33}{subsection.4.4.5}}
\newlabel{E7-energy-2}{{4.4.10}{33}{Linearization of the Energy}{equation.4.4.10}{}}
\newlabel{E8-energy-3}{{4.4.11}{33}{Linearization of the Energy}{equation.4.4.11}{}}
\newlabel{E9-energy-4}{{4.4.12}{33}{Linearization of the Energy}{equation.4.4.12}{}}
\newlabel{E10-energy-5}{{4.4.13}{33}{Linearization of the Energy}{equation.4.4.13}{}}
\citation{komodakis2015playing}
\newlabel{E13-energy-8}{{4.4.17}{34}{Linearization of the Energy}{equation.4.4.17}{}}
\newlabel{E14-energy-9}{{4.4.18}{34}{Linearization of the Energy}{equation.4.4.18}{}}
\@writefile{toc}{\contentsline {section}{\numberline {4.5}Modelling with MRFs}{34}{section.4.5}}
\@writefile{toc}{\contentsline {subsection}{\numberline {4.5.1}MRFs in Image Segmentation}{34}{subsection.4.5.1}}
\newlabel{E:EPDiff}{{4.5.1}{34}{MRFs in Image Segmentation}{equation.4.5.1}{}}
\newlabel{E:EPDiff}{{4.5.2}{35}{MRFs in Image Segmentation}{equation.4.5.2}{}}
\newlabel{E:EPDiff}{{4.5.6}{35}{MRFs in Image Segmentation}{equation.4.5.6}{}}
\newlabel{E:EPDiff}{{4.5.7}{35}{MRFs in Image Segmentation}{equation.4.5.7}{}}
\newlabel{E:EPDiff}{{4.5.8}{35}{MRFs in Image Segmentation}{equation.4.5.8}{}}
\newlabel{E:EPDiff}{{4.5.9}{36}{MRFs in Image Segmentation}{equation.4.5.9}{}}
\@writefile{toc}{\contentsline {subsection}{\numberline {4.5.2}MRFs in Image Registration}{36}{subsection.4.5.2}}
\newlabel{E:EPDiff}{{4.5.10}{36}{MRFs in Image Registration}{equation.4.5.10}{}}
\newlabel{E:EPDiff}{{4.5.11}{36}{MRFs in Image Registration}{equation.4.5.11}{}}
\newlabel{E:EPDiff}{{4.5.12}{36}{MRFs in Image Registration}{equation.4.5.12}{}}
\citation{beal2018gekko}
\citation{klein2009evaluation}
\newlabel{E:EPDiff}{{4.5.13}{37}{MRFs in Image Registration}{equation.4.5.13}{}}
\newlabel{E:EPDiff}{{4.5.14}{37}{MRFs in Image Registration}{equation.4.5.14}{}}
\@writefile{toc}{\contentsline {section}{\numberline {4.6}Initial Experiments}{37}{section.4.6}}
\@setckpt{mrf}{
\setcounter{page}{38}
\setcounter{equation}{0}
\setcounter{enumi}{0}
\setcounter{enumii}{0}
\setcounter{enumiii}{0}
\setcounter{enumiv}{0}
\setcounter{footnote}{0}
\setcounter{mpfootnote}{0}
\setcounter{ContinuedFloat}{0}
\setcounter{float@type}{2}
\setcounter{parentequation}{0}
\setcounter{algorithm}{0}
\setcounter{ALG@line}{0}
\setcounter{ALG@rem}{0}
\setcounter{ALG@nested}{0}
\setcounter{ALG@Lnr}{2}
\setcounter{ALG@blocknr}{10}
\setcounter{ALG@storecount}{0}
\setcounter{ALG@tmpcounter}{0}
\setcounter{subfigure}{22}
\setcounter{lofdepth}{1}
\setcounter{subtable}{0}
\setcounter{lotdepth}{1}
\setcounter{part}{0}
\setcounter{chapter}{4}
\setcounter{section}{6}
\setcounter{subsection}{0}
\setcounter{subsubsection}{0}
\setcounter{paragraph}{0}
\setcounter{subparagraph}{0}
\setcounter{figure}{4}
\setcounter{table}{0}
\setcounter{Item}{0}
\setcounter{Hfootnote}{0}
\setcounter{bookmark@seq@number}{39}
\setcounter{thm}{0}
\setcounter{BibCnt}{0}
\setcounter{NAT@ctr}{0}
\setcounter{section@level}{0}
\setcounter{maskedRefs}{0}
}
