\relax 
\providecommand\hyper@newdestlabel[2]{}
\citation{ashburner2005unified}
\citation{blaiotta2018generative}
\citation{ashburner2005unified}
\citation{hinton2007recognize}
\@writefile{lot}{\contentsline {table}{\numberline {5.1}{\ignorespaces Notation}}{39}{table.5.1}}
\newlabel{table:4.1}{{\caption@xref {table:4.1}{ on input line 26}}{39}{Joint Registration and Segmentation}{table.5.1}{}}
\@writefile{toc}{\contentsline {section}{\numberline {5.1}Forward Model}{40}{section.5.1}}
\newlabel{Forward Model}{{5.1}{40}{Forward Model}{section.5.1}{}}
\newlabel{E4.1-subject-coord}{{5.1.1}{40}{Forward Model}{equation.5.1.1}{}}
\newlabel{E4.1-template-coord}{{5.1.2}{40}{Forward Model}{equation.5.1.2}{}}
\newlabel{E4.3-action}{{5.1.3}{40}{Forward Model}{equation.5.1.3}{}}
\newlabel{E4.4-map}{{5.1.4}{40}{Forward Model}{equation.5.1.4}{}}
\newlabel{E4.6.5}{{5.1.5}{40}{Forward Model}{equation.5.1.5}{}}
\newlabel{E4.6.5}{{5.1.6}{41}{Forward Model}{equation.5.1.6}{}}
\newlabel{E4.5-ind}{{5.1.7}{41}{Forward Model}{equation.5.1.7}{}}
\newlabel{E100}{{5.1.8}{41}{Forward Model}{equation.5.1.8}{}}
\newlabel{E4.6-factorization}{{5.1.9}{41}{Forward Model}{equation.5.1.9}{}}
\newlabel{E4.7-}{{5.1.10}{41}{Forward Model}{equation.5.1.10}{}}
\newlabel{E4.8-delta}{{5.1.11}{41}{Forward Model}{equation.5.1.11}{}}
\citation{seeger2004gaussian}
\newlabel{E4.9-noise}{{5.1.12}{42}{Forward Model}{equation.5.1.12}{}}
\newlabel{E4.9-noise}{{5.1.13}{42}{Forward Model}{equation.5.1.13}{}}
\newlabel{E4.9-noise}{{5.1.14}{42}{Forward Model}{equation.5.1.14}{}}
\newlabel{E4.9-noise-2}{{5.1.15}{42}{Forward Model}{equation.5.1.15}{}}
\newlabel{E4.9-noise-2}{{5.1.16}{42}{Forward Model}{equation.5.1.16}{}}
\newlabel{E4.9-noise-2}{{5.1.17}{42}{Forward Model}{equation.5.1.17}{}}
\newlabel{E4.9-noise-2}{{5.1.18}{42}{Forward Model}{equation.5.1.18}{}}
\newlabel{E4.9-noise-2}{{5.1.19}{42}{Forward Model}{equation.5.1.19}{}}
\newlabel{E4.8-delta}{{5.1.20}{42}{Forward Model}{equation.5.1.20}{}}
\newlabel{fig:square-warped-a}{{\caption@xref {fig:square-warped-a}{ on input line 141}}{43}{Forward Model}{equation.5.1.20}{}}
\@writefile{}{\contentsline {subfigure}{\numberline {(w)}{\ignorespaces (a) $T$\relax }}{43}{figure.5.1}}
\newlabel{fig:square-warped-a}{{\caption@xref {fig:square-warped-a}{ on input line 142}}{43}{Forward Model}{figure.5.1}{}}
\@writefile{}{\contentsline {subfigure}{\numberline {(x)}{\ignorespaces (b) $T + \epsilon _i$\relax }}{43}{figure.5.1}}
\newlabel{fig:square-warped-a}{{\caption@xref {fig:square-warped-a}{ on input line 143}}{43}{Forward Model}{figure.5.1}{}}
\@writefile{}{\contentsline {subfigure}{\numberline {(y)}{\ignorespaces (c) $\Gamma $\relax }}{43}{figure.5.1}}
\newlabel{fig:square-warped-a}{{\caption@xref {fig:square-warped-a}{ on input line 145}}{43}{Forward Model}{figure.5.1}{}}
\@writefile{}{\contentsline {subfigure}{\numberline {(z)}{\ignorespaces (d) $Z_i$\relax }}{43}{figure.5.1}}
\newlabel{fig:square-warped-a}{{\caption@xref {fig:square-warped-a}{ on input line 146}}{43}{Forward Model}{figure.5.1}{}}
\@writefile{}{\contentsline {subfigure}{\numberline {(\GenericError  {               }{LaTeX Error: Counter too large}{See the LaTeX manual or LaTeX Companion for explanation.}{You've lost some text.  Try typing  <return>  to proceed.\MessageBreak If that doesn't work, type  X <return>  to quit.})}{\ignorespaces (e) $J_i$ (template space)\relax }}{43}{figure.5.1}}
\newlabel{fig:square-warped-a}{{\caption@xref {fig:square-warped-a}{ on input line 147}}{43}{Forward Model}{figure.5.1}{}}
\@writefile{}{\contentsline {subfigure}{\numberline {(\GenericError  {               }{LaTeX Error: Counter too large}{See the LaTeX manual or LaTeX Companion for explanation.}{You've lost some text.  Try typing  <return>  to proceed.\MessageBreak If that doesn't work, type  X <return>  to quit.})}{\ignorespaces (f) $I_i $ (subject space)\relax }}{43}{figure.5.1}}
\@writefile{lof}{\contentsline {figure}{\numberline {5.2}{\ignorespaces  Forward model generating a sample from a toy template example. }}{43}{figure.5.2}}
\newlabel{fig:toy}{{\caption@xref {fig:toy}{ on input line 149}}{43}{Forward Model}{figure.5.2}{}}
\@writefile{toc}{\contentsline {section}{\numberline {5.2}Inference and Parameter Optimization}{43}{section.5.2}}
\@writefile{toc}{\contentsline {subsection}{\numberline {5.2.1}Simplified Model}{43}{subsection.5.2.1}}
\newlabel{E4.9-noise-2}{{5.2.1}{43}{Simplified Model}{equation.5.2.1}{}}
\@writefile{lof}{\contentsline {figure}{\numberline {5.3}{\ignorespaces  Graphical representation of the forward model. Observed variables $I_i$ are represented by shaded nodes. Latent variables and model parameters are represented as non-shaded nodes. The rectangular plate denotes repeated variables. Symbols referring to all variables and parameters are listed in Table 5.1}}{44}{figure.5.3}}
\newlabel{fig:plate}{{\caption@xref {fig:plate}{ on input line 182}}{44}{Forward Model}{figure.5.3}{}}
\newlabel{E4.7-}{{5.2.2}{44}{Simplified Model}{equation.5.2.2}{}}
\newlabel{E4.7-}{{5.2.3}{44}{Simplified Model}{equation.5.2.3}{}}
\newlabel{E4.7-}{{5.2.4}{44}{Simplified Model}{equation.5.2.4}{}}
\newlabel{E4.7-}{{5.2.7}{44}{Simplified Model}{equation.5.2.7}{}}
\citation{moon1996expectation}
\@writefile{toc}{\contentsline {subsection}{\numberline {5.2.2}Maximum A Posteriori Estimation}{45}{subsection.5.2.2}}
\newlabel{E4.7-}{{5.2.8}{45}{Maximum A Posteriori Estimation}{equation.5.2.8}{}}
\newlabel{E4.7-}{{5.2.9}{45}{Maximum A Posteriori Estimation}{equation.5.2.9}{}}
\@writefile{loa}{\contentsline {algorithm}{\numberline {1}{\ignorespaces Block Coordinate Descent for MAP Estimation}}{45}{algorithm.1}}
\@writefile{toc}{\contentsline {subsection}{\numberline {5.2.3}Implementation}{45}{subsection.5.2.3}}
\citation{yang2016dlmia}
\citation{yang2017quicksilver}
\citation{niethammer2019_cvpr}
\citation{shen2019networks}
\citation{shen2019region}
\citation{nesterov1983method}
\citation{tambe2013image}
\@writefile{toc}{\contentsline {subsubsection}{Deformation inference}{46}{subsection.5.2.3}}
\newlabel{E4.1-template-coord}{{5.2.10}{46}{Deformation inference}{equation.5.2.10}{}}
\@writefile{toc}{\contentsline {subsubsection}{Segmentation Inference}{46}{equation.5.2.10}}
\newlabel{E4.1-template-coord}{{5.2.11}{46}{Segmentation Inference}{equation.5.2.11}{}}
\@writefile{toc}{\contentsline {subsubsection}{Inference Algorithms}{47}{equation.5.2.11}}
\newlabel{mattstemperflaring}{{5.2.1}{47}{\textbf {Reg}}{thm.5.2.1}{}}
\newlabel{mattstemperflaring}{{5.2.2}{47}{\textbf {Reg-True-Mask}}{thm.5.2.2}{}}
\newlabel{mattstemperflaring}{{5.2.3}{47}{\textbf {Seg}}{thm.5.2.3}{}}
\newlabel{mattstemperflaring}{{5.2.4}{47}{\textbf {RegSeg}}{thm.5.2.4}{}}
\newlabel{mattstemperflaring}{{5.2.5}{47}{\textbf {RegSeg-Morph}}{thm.5.2.5}{}}
\@writefile{lof}{\contentsline {figure}{\numberline {5.4}{\ignorespaces  Segmentation and registration performance for subject with ID = 2 from the dataset presented in Chapter 6. }}{48}{figure.5.4}}
\newlabel{fig:square-I-T}{{5.2.3}{48}{Inference Algorithms}{figure.5.4}{}}
\@writefile{lof}{\contentsline {figure}{\numberline {5.5}{\ignorespaces  A graphical representation of the RegSeg algorithm.}}{48}{figure.5.5}}
\newlabel{fig:square-I-T}{{5.2.3}{48}{Inference Algorithms}{figure.5.5}{}}
\@writefile{loa}{\contentsline {algorithm}{\numberline {2}{\ignorespaces RegSeg-Morph}}{49}{algorithm.2}}
\@writefile{toc}{\contentsline {section}{\numberline {5.3}Synthetic Experiments}{49}{section.5.3}}
\newlabel{E-DICE}{{5.3.1}{50}{Synthetic Experiments}{equation.5.3.1}{}}
\@writefile{toc}{\contentsline {subsection}{\numberline {5.3.1}Experiment 1: Shapes}{50}{subsection.5.3.1}}
\newlabel{fig:square-warped-a}{{\caption@xref {fig:square-warped-a}{ on input line 463}}{51}{Experiment 1: Shapes}{subsection.5.3.1}{}}
\@writefile{}{\contentsline {subfigure}{\numberline {(\GenericError  {               }{LaTeX Error: Counter too large}{See the LaTeX manual or LaTeX Companion for explanation.}{You've lost some text.  Try typing  <return>  to proceed.\MessageBreak If that doesn't work, type  X <return>  to quit.})}{\ignorespaces  (a) Subject\relax }}{51}{figure.5.6}}
\newlabel{fig:square-warped-b}{{\caption@xref {fig:square-warped-b}{ on input line 465}}{51}{Experiment 1: Shapes}{figure.5.6}{}}
\@writefile{}{\contentsline {subfigure}{\numberline {(\GenericError  {               }{LaTeX Error: Counter too large}{See the LaTeX manual or LaTeX Companion for explanation.}{You've lost some text.  Try typing  <return>  to proceed.\MessageBreak If that doesn't work, type  X <return>  to quit.})}{\ignorespaces (b) Template \relax }}{51}{figure.5.6}}
\@writefile{lof}{\contentsline {figure}{\numberline {5.7}{\ignorespaces  Warping a square onto a circle. The square hypo-intense pixels form an ellipse. }}{51}{figure.5.7}}
\newlabel{fig:square-I-T}{{\caption@xref {fig:square-I-T}{ on input line 468}}{51}{Experiment 1: Shapes}{figure.5.7}{}}
\newlabel{fig:square-warped-a}{{\caption@xref {fig:square-warped-a}{ on input line 473}}{52}{Experiment 1: Shapes}{figure.5.7}{}}
\@writefile{}{\contentsline {subfigure}{\numberline {(\GenericError  {               }{LaTeX Error: Counter too large}{See the LaTeX manual or LaTeX Companion for explanation.}{You've lost some text.  Try typing  <return>  to proceed.\MessageBreak If that doesn't work, type  X <return>  to quit.})}{\ignorespaces  (a) $I \circ \phi $ (Reg)\relax }}{52}{figure.5.8}}
\newlabel{fig:square-warped-b}{{\caption@xref {fig:square-warped-b}{ on input line 475}}{52}{Experiment 1: Shapes}{figure.5.8}{}}
\@writefile{}{\contentsline {subfigure}{\numberline {(\GenericError  {               }{LaTeX Error: Counter too large}{See the LaTeX manual or LaTeX Companion for explanation.}{You've lost some text.  Try typing  <return>  to proceed.\MessageBreak If that doesn't work, type  X <return>  to quit.})}{\ignorespaces (b) $I \circ \phi $ (RegSeg-True-Mask)\relax }}{52}{figure.5.8}}
\newlabel{fig:square-warped-c}{{\caption@xref {fig:square-warped-c}{ on input line 477}}{52}{Experiment 1: Shapes}{figure.5.8}{}}
\@writefile{}{\contentsline {subfigure}{\numberline {(\GenericError  {               }{LaTeX Error: Counter too large}{See the LaTeX manual or LaTeX Companion for explanation.}{You've lost some text.  Try typing  <return>  to proceed.\MessageBreak If that doesn't work, type  X <return>  to quit.})}{\ignorespaces (c) $I \circ \phi $ (RegSeg)\relax }}{52}{figure.5.8}}
\newlabel{fig:square-warped-d}{{\caption@xref {fig:square-warped-d}{ on input line 479}}{52}{Experiment 1: Shapes}{figure.5.8}{}}
\@writefile{}{\contentsline {subfigure}{\numberline {(\GenericError  {               }{LaTeX Error: Counter too large}{See the LaTeX manual or LaTeX Companion for explanation.}{You've lost some text.  Try typing  <return>  to proceed.\MessageBreak If that doesn't work, type  X <return>  to quit.})}{\ignorespaces (d) $\phi $ (Reg)\relax }}{52}{figure.5.8}}
\newlabel{fig:square-warped-e}{{\caption@xref {fig:square-warped-e}{ on input line 480}}{52}{Experiment 1: Shapes}{figure.5.8}{}}
\@writefile{}{\contentsline {subfigure}{\numberline {(\GenericError  {               }{LaTeX Error: Counter too large}{See the LaTeX manual or LaTeX Companion for explanation.}{You've lost some text.  Try typing  <return>  to proceed.\MessageBreak If that doesn't work, type  X <return>  to quit.})}{\ignorespaces (e) $\phi $ (RegSeg-True-Mask)\relax }}{52}{figure.5.8}}
\newlabel{fig:square-warped-f}{{\caption@xref {fig:square-warped-f}{ on input line 481}}{52}{Experiment 1: Shapes}{figure.5.8}{}}
\@writefile{}{\contentsline {subfigure}{\numberline {(\GenericError  {               }{LaTeX Error: Counter too large}{See the LaTeX manual or LaTeX Companion for explanation.}{You've lost some text.  Try typing  <return>  to proceed.\MessageBreak If that doesn't work, type  X <return>  to quit.})}{\ignorespaces (f) $\phi $ (RegSeg)\relax }}{52}{figure.5.8}}
\@writefile{lof}{\contentsline {figure}{\numberline {5.9}{\ignorespaces  The first row displays the warped subject images ($I \circ \phi $) and the second row displays the corresponding warps ($\phi $). }}{52}{figure.5.9}}
\newlabel{fig:square-warped}{{\caption@xref {fig:square-warped}{ on input line 484}}{52}{Experiment 1: Shapes}{figure.5.9}{}}
\newlabel{fig:square-warped-a}{{\caption@xref {fig:square-warped-a}{ on input line 489}}{52}{Experiment 1: Shapes}{figure.5.9}{}}
\@writefile{}{\contentsline {subfigure}{\numberline {(\GenericError  {               }{LaTeX Error: Counter too large}{See the LaTeX manual or LaTeX Companion for explanation.}{You've lost some text.  Try typing  <return>  to proceed.\MessageBreak If that doesn't work, type  X <return>  to quit.})}{\ignorespaces  (a) Mask estimate (Seg)\relax }}{52}{figure.5.10}}
\newlabel{fig:square-warped-b}{{\caption@xref {fig:square-warped-b}{ on input line 491}}{52}{Experiment 1: Shapes}{figure.5.10}{}}
\@writefile{}{\contentsline {subfigure}{\numberline {(\GenericError  {               }{LaTeX Error: Counter too large}{See the LaTeX manual or LaTeX Companion for explanation.}{You've lost some text.  Try typing  <return>  to proceed.\MessageBreak If that doesn't work, type  X <return>  to quit.})}{\ignorespaces (b) Mask estimate (RegSeg-Morph)\relax }}{52}{figure.5.10}}
\newlabel{fig:square-warped-c}{{\caption@xref {fig:square-warped-c}{ on input line 493}}{52}{Experiment 1: Shapes}{figure.5.10}{}}
\@writefile{}{\contentsline {subfigure}{\numberline {(\GenericError  {               }{LaTeX Error: Counter too large}{See the LaTeX manual or LaTeX Companion for explanation.}{You've lost some text.  Try typing  <return>  to proceed.\MessageBreak If that doesn't work, type  X <return>  to quit.})}{\ignorespaces (c) True mask\relax }}{52}{figure.5.10}}
\@writefile{lof}{\contentsline {figure}{\numberline {5.11}{\ignorespaces  The first mask is estimated with the \textit  {Seg} algorithm; meaning, under the segmentation model but without iteratively being conditioned on the registration estimates. The second mask is estimated with the \textit  {RegSeg} algorithm; mean it is iteratively estimated under the segmentation model while accounting for the evolving deformation results from the registration component. }}{52}{figure.5.11}}
\newlabel{fig:square-masks}{{\caption@xref {fig:square-masks}{ on input line 496}}{52}{Experiment 1: Shapes}{figure.5.11}{}}
\@writefile{toc}{\contentsline {subsection}{\numberline {5.3.2}Experiment 2: Cartoon Brain}{53}{subsection.5.3.2}}
\newlabel{fig:square-warped-a}{{\caption@xref {fig:square-warped-a}{ on input line 512}}{53}{Experiment 2: Cartoon Brain}{subsection.5.3.2}{}}
\@writefile{}{\contentsline {subfigure}{\numberline {(\GenericError  {               }{LaTeX Error: Counter too large}{See the LaTeX manual or LaTeX Companion for explanation.}{You've lost some text.  Try typing  <return>  to proceed.\MessageBreak If that doesn't work, type  X <return>  to quit.})}{\ignorespaces  (a) Subject\relax }}{53}{figure.5.12}}
\newlabel{fig:square-warped-b}{{\caption@xref {fig:square-warped-b}{ on input line 514}}{53}{Experiment 2: Cartoon Brain}{figure.5.12}{}}
\@writefile{}{\contentsline {subfigure}{\numberline {(\GenericError  {               }{LaTeX Error: Counter too large}{See the LaTeX manual or LaTeX Companion for explanation.}{You've lost some text.  Try typing  <return>  to proceed.\MessageBreak If that doesn't work, type  X <return>  to quit.})}{\ignorespaces (b) Template \relax }}{53}{figure.5.12}}
\newlabel{fig:square-warped-b}{{\caption@xref {fig:square-warped-b}{ on input line 515}}{53}{Experiment 2: Cartoon Brain}{figure.5.12}{}}
\@writefile{}{\contentsline {subfigure}{\numberline {(\GenericError  {               }{LaTeX Error: Counter too large}{See the LaTeX manual or LaTeX Companion for explanation.}{You've lost some text.  Try typing  <return>  to proceed.\MessageBreak If that doesn't work, type  X <return>  to quit.})}{\ignorespaces (c) Warped subject \relax }}{53}{figure.5.12}}
\@writefile{lof}{\contentsline {figure}{\numberline {5.13}{\ignorespaces  Warping a cartoon brain onto a cartoon template. Both images have added smooth noise and the subject image has hypo-intense pixels to simulate a lesion. }}{53}{figure.5.13}}
\newlabel{fig:square-I-T}{{\caption@xref {fig:square-I-T}{ on input line 518}}{53}{Experiment 2: Cartoon Brain}{figure.5.13}{}}
\newlabel{fig:square-warped-a}{{\caption@xref {fig:square-warped-a}{ on input line 527}}{53}{Experiment 2: Cartoon Brain}{figure.5.13}{}}
\@writefile{}{\contentsline {subfigure}{\numberline {(\GenericError  {               }{LaTeX Error: Counter too large}{See the LaTeX manual or LaTeX Companion for explanation.}{You've lost some text.  Try typing  <return>  to proceed.\MessageBreak If that doesn't work, type  X <return>  to quit.})}{\ignorespaces  (a) Mask estimate (Seg)\relax }}{53}{figure.5.14}}
\newlabel{fig:square-warped-a}{{\caption@xref {fig:square-warped-a}{ on input line 528}}{53}{Experiment 2: Cartoon Brain}{figure.5.14}{}}
\@writefile{}{\contentsline {subfigure}{\numberline {(\GenericError  {               }{LaTeX Error: Counter too large}{See the LaTeX manual or LaTeX Companion for explanation.}{You've lost some text.  Try typing  <return>  to proceed.\MessageBreak If that doesn't work, type  X <return>  to quit.})}{\ignorespaces  (b) Mask estimate (RegSeg-Morph)\relax }}{53}{figure.5.14}}
\newlabel{fig:square-warped-a}{{\caption@xref {fig:square-warped-a}{ on input line 529}}{53}{Experiment 2: Cartoon Brain}{figure.5.14}{}}
\@writefile{}{\contentsline {subfigure}{\numberline {(\GenericError  {               }{LaTeX Error: Counter too large}{See the LaTeX manual or LaTeX Companion for explanation.}{You've lost some text.  Try typing  <return>  to proceed.\MessageBreak If that doesn't work, type  X <return>  to quit.})}{\ignorespaces  (c) True mask\relax }}{53}{figure.5.14}}
\@writefile{lof}{\contentsline {figure}{\numberline {5.15}{\ignorespaces  The first mask is estimated under our the segmentation model but without iteratively being conditioned on the registration estimates. The second mask is estimated iteratively while accounting for the evolving deformation results from the registration component. }}{53}{figure.5.15}}
\newlabel{fig:square-masks}{{\caption@xref {fig:square-masks}{ on input line 532}}{53}{Experiment 2: Cartoon Brain}{figure.5.15}{}}
\@writefile{toc}{\contentsline {subsubsection}{Experimental Results}{54}{figure.5.15}}
\@writefile{lot}{\contentsline {table}{\numberline {5.2}{\ignorespaces Registration results (lower is better). Given is the sum of squared differences (SSD) between the source image in subject coordinates, i.e. $I$, and the template image in subject coordinates, i.e. $T \circ \phi ^{-1}$. SSD is computed outside the segmentation mask this corresponds to the healthy tissue in the case of lesion segmentation. Moreover, it is computed for two distinct regions, one near the segmentation boundary and one over the entire image. }}{54}{table.5.2}}
\newlabel{tab:table-reg-result}{{5.2}{54}{Registration results (lower is better). Given is the sum of squared differences (SSD) between the source image in subject coordinates, i.e. $I$, and the template image in subject coordinates, i.e. $T \circ \phi ^{-1}$. SSD is computed outside the segmentation mask this corresponds to the healthy tissue in the case of lesion segmentation. Moreover, it is computed for two distinct regions, one near the segmentation boundary and one over the entire image}{table.5.2}{}}
\@writefile{lot}{\contentsline {table}{\numberline {5.3}{\ignorespaces  Segmentation results (higher is better). Given is the Dice score between true and estimated lesion region, estimated using two algorithms \textit  {Seg} and \textit  {RegSeg}.}}{54}{table.5.3}}
\newlabel{tab:table-seg-result}{{5.3}{54}{Segmentation results (higher is better). Given is the Dice score between true and estimated lesion region, estimated using two algorithms \textit {Seg} and \textit {RegSeg}}{table.5.3}{}}
\@setckpt{RegSeg}{
\setcounter{page}{55}
\setcounter{equation}{1}
\setcounter{enumi}{0}
\setcounter{enumii}{0}
\setcounter{enumiii}{0}
\setcounter{enumiv}{0}
\setcounter{footnote}{0}
\setcounter{mpfootnote}{0}
\setcounter{ContinuedFloat}{0}
\setcounter{float@type}{2}
\setcounter{parentequation}{0}
\setcounter{algorithm}{2}
\setcounter{ALG@line}{11}
\setcounter{ALG@rem}{0}
\setcounter{ALG@nested}{0}
\setcounter{ALG@Lnr}{2}
\setcounter{ALG@blocknr}{10}
\setcounter{ALG@storecount}{0}
\setcounter{ALG@tmpcounter}{0}
\setcounter{subfigure}{45}
\setcounter{lofdepth}{1}
\setcounter{subtable}{0}
\setcounter{lotdepth}{1}
\setcounter{part}{0}
\setcounter{chapter}{5}
\setcounter{section}{3}
\setcounter{subsection}{2}
\setcounter{subsubsection}{0}
\setcounter{paragraph}{0}
\setcounter{subparagraph}{0}
\setcounter{figure}{15}
\setcounter{table}{3}
\setcounter{Item}{0}
\setcounter{Hfootnote}{0}
\setcounter{bookmark@seq@number}{48}
\setcounter{thm}{0}
\setcounter{BibCnt}{0}
\setcounter{NAT@ctr}{0}
\setcounter{section@level}{0}
\setcounter{maskedRefs}{0}
}
